TRIGRAM * * ADJ -5.05484847699562
TRIGRAM * * ADP -2.8849234755533075
TRIGRAM * * ADV -2.648856117319783
TRIGRAM * * AUX -6.528779665328032
TRIGRAM * * CCONJ -5.45077715332676
TRIGRAM * * DET -1.7561901614311046
TRIGRAM * * NOUN -3.8913497447127403
TRIGRAM * * NUM -6.698704666770345
TRIGRAM * * PART -4.611241825520005
TRIGRAM * * PRON -4.35885466388572
TRIGRAM * * PROPN -6.891349744712741
TRIGRAM * * PUNCT -7.891349744712741
TRIGRAM * * SCONJ -5.272439912068247
TRIGRAM * * VERB -2.8469556253542874
TRIGRAM * * X -9.698704666770345
TRIGRAM * ADJ ADJ -4.058893689053568
TRIGRAM * ADJ ADP -3.6438561897747253
TRIGRAM * ADJ ADV -5.643856189774724
TRIGRAM * ADJ AUX -3.0588936890535687
TRIGRAM * ADJ CCONJ -4.643856189774724
TRIGRAM * ADJ DET -3.321928094887362
TRIGRAM * ADJ NOUN -1.6438561897747248
TRIGRAM * ADJ PART -5.643856189774724
TRIGRAM * ADJ PRON -2.8365012677171206
TRIGRAM * ADJ PROPN -5.643856189774724
TRIGRAM * ADJ PUNCT -4.058893689053568
TRIGRAM * ADJ VERB -5.643856189774724
TRIGRAM * ADP ADJ -3.4214637684382767
TRIGRAM * ADP ADV -5.228818690495881
TRIGRAM * ADP CCONJ -7.813781191217037
TRIGRAM * ADP DET -0.5849625007211563
TRIGRAM * ADP NOUN -3.491853096329675
TRIGRAM * ADP NUM -6.813781191217037
TRIGRAM * ADP PART -4.491853096329675
TRIGRAM * ADP PRON -3.9068905956085187
TRIGRAM * ADV ADJ -7.049848549450561
TRIGRAM * ADV ADP -2.623583794748464
TRIGRAM * ADV ADV -4.142957953842043
TRIGRAM * ADV AUX -7.049848549450561
TRIGRAM * ADV CCONJ -4.879923548008249
TRIGRAM * ADV DET -4.049848549450561
TRIGRAM * ADV NOUN -5.049848549450561
TRIGRAM * ADV NUM -7.049848549450561
TRIGRAM * ADV PART -5.242493627392958
TRIGRAM * ADV PRON -5.049848549450561
TRIGRAM * ADV PROPN -8.049848549450562
TRIGRAM * ADV PUNCT -1.2816642246736352
TRIGRAM * ADV SCONJ -7.049848549450561
TRIGRAM * ADV VERB -2.692296544832478
TRIGRAM * AUX ADJ -1.3625700793847084
TRIGRAM * AUX ADV -1.5849625007211563
TRIGRAM * AUX CCONJ -4.169925001442313
TRIGRAM * AUX DET -2.584962500721156
TRIGRAM * AUX PRON -4.169925001442313
TRIGRAM * CCONJ ADV -5.247927513443585
TRIGRAM * CCONJ AUX -5.247927513443585
TRIGRAM * CCONJ DET -3.2479275134435857
TRIGRAM * CCONJ PART -4.247927513443586
TRIGRAM * CCONJ PRON -5.247927513443585
TRIGRAM * CCONJ PUNCT -0.4405725913859815
TRIGRAM * CCONJ VERB -5.247927513443585
TRIGRAM * DET ADJ -2.327804661224032
TRIGRAM * DET ADP -8.94251450533924
TRIGRAM * DET ADV -6.94251450533924
TRIGRAM * DET NOUN -0.787696396287136
TRIGRAM * DET NUM -4.772589503896928
TRIGRAM * DET PART -8.94251450533924
TRIGRAM * DET PRON -5.942514505339239
TRIGRAM * DET PROPN -3.450661409009565
TRIGRAM * DET VERB -8.94251450533924
TRIGRAM * DET X -3.988318194952365
TRIGRAM * NOUN ADJ -5.807354922057605
TRIGRAM * NOUN ADP -4.0
TRIGRAM * NOUN ADV -5.807354922057605
TRIGRAM * NOUN CCONJ -6.807354922057604
TRIGRAM * NOUN DET -3.106915203916512
TRIGRAM * NOUN NOUN -1.5594274086140185
TRIGRAM * NOUN PRON -5.807354922057605
TRIGRAM * NOUN PUNCT -5.807354922057605
TRIGRAM * NOUN STOP -1.5594274086140185
TRIGRAM * NOUN VERB -4.2223924213364485
TRIGRAM * NOUN X -6.807354922057604
TRIGRAM * NUM ADJ -3.0
TRIGRAM * NUM ADP -2.415037499278844
TRIGRAM * NUM NOUN -1.0
TRIGRAM * NUM NUM -4.0
TRIGRAM * NUM VERB -4.0
TRIGRAM * NUM X -4.0
TRIGRAM * PART AUX -4.08746284125034
TRIGRAM * PART PART -5.08746284125034
TRIGRAM * PART PRON -4.08746284125034
TRIGRAM * PART VERB -0.22948184612276734
TRIGRAM * PRON ADP -6.339850002884625
TRIGRAM * PRON AUX -2.532495080827021
TRIGRAM * PRON CCONJ -5.339850002884625
TRIGRAM * PRON DET -2.7548875021634687
TRIGRAM * PRON NOUN -3.7548875021634687
TRIGRAM * PRON NUM -6.339850002884625
TRIGRAM * PRON PART -3.532495080827021
TRIGRAM * PRON PUNCT -6.339850002884625
TRIGRAM * PRON STOP -6.339850002884625
TRIGRAM * PRON VERB -1.1699250014423124
TRIGRAM * PROPN DET -3.8073549220576046
TRIGRAM * PROPN NOUN -2.222392421336448
TRIGRAM * PROPN PROPN -3.8073549220576046
TRIGRAM * PROPN PUNCT -0.6374299206152917
TRIGRAM * PUNCT ADP -0.4854268271702417
TRIGRAM * PUNCT DET -2.8073549220576046
TRIGRAM * PUNCT X -2.8073549220576046
TRIGRAM * SCONJ ADJ -5.426264754702098
TRIGRAM * SCONJ ADP -5.426264754702098
TRIGRAM * SCONJ ADV -3.4262647547020983
TRIGRAM * SCONJ CCONJ -3.841302253980942
TRIGRAM * SCONJ DET -2.2563397532597858
TRIGRAM * SCONJ PART -3.841302253980942
TRIGRAM * SCONJ PRON -5.426264754702098
TRIGRAM * SCONJ PUNCT -5.426264754702098
TRIGRAM * SCONJ VERB -1.1043366598147357
TRIGRAM * VERB ADJ -3.9448584458075393
TRIGRAM * VERB ADP -2.8517490414160576
TRIGRAM * VERB ADV -2.6818240399737454
TRIGRAM * VERB CCONJ -4.392317422778761
TRIGRAM * VERB DET -2.4941970367979738
TRIGRAM * VERB NOUN -4.681824039973745
TRIGRAM * VERB NUM -6.851749041416057
TRIGRAM * VERB PART -3.0968615392525893
TRIGRAM * VERB PRON -4.851749041416057
TRIGRAM * VERB PUNCT -5.266786540694901
TRIGRAM * VERB SCONJ -2.5298209465286954
TRIGRAM * VERB VERB -5.851749041416058
TRIGRAM * X STOP -1.0
TRIGRAM * X VERB -1.0
TRIGRAM ADJ ADJ ADJ -4.930737337562887
TRIGRAM ADJ ADJ ADP -4.515699838284043
TRIGRAM ADJ ADJ AUX -7.515699838284044
TRIGRAM ADJ ADJ CCONJ -4.930737337562887
TRIGRAM ADJ ADJ NOUN -0.2395754330098048
TRIGRAM ADJ ADJ PUNCT -5.19377174339668
TRIGRAM ADJ ADJ SCONJ -7.515699838284044
TRIGRAM ADJ ADJ VERB -7.515699838284044
TRIGRAM ADJ ADP ADJ -4.3423921974470785
TRIGRAM ADJ ADP ADP -7.149747119504682
TRIGRAM ADJ ADP ADV -7.149747119504682
TRIGRAM ADJ ADP DET -0.5951582678270446
TRIGRAM ADJ ADP NOUN -3.149747119504682
TRIGRAM ADJ ADP NUM -3.564784618783526
TRIGRAM ADJ ADP PART -5.564784618783526
TRIGRAM ADJ ADP PRON -4.149747119504682
TRIGRAM ADJ ADV ADJ -2.938599455335857
TRIGRAM ADJ ADV ADP -2.523561956057013
TRIGRAM ADJ ADV ADV -3.523561956057013
TRIGRAM ADJ ADV AUX -4.523561956057013
TRIGRAM ADJ ADV CCONJ -2.523561956057013
TRIGRAM ADJ ADV DET -4.523561956057013
TRIGRAM ADJ ADV NOUN -2.938599455335857
TRIGRAM ADJ ADV NUM -4.523561956057013
TRIGRAM ADJ ADV PART -4.523561956057013
TRIGRAM ADJ ADV PUNCT -4.523561956057013
TRIGRAM ADJ ADV VERB -4.523561956057013
TRIGRAM ADJ ADV X -4.523561956057013
TRIGRAM ADJ AUX ADJ -4.0
TRIGRAM ADJ AUX ADP -4.0
TRIGRAM ADJ AUX CCONJ -2.415037499278844
TRIGRAM ADJ AUX DET -1.4150374992788437
TRIGRAM ADJ AUX PRON -4.0
TRIGRAM ADJ AUX PROPN -4.0
TRIGRAM ADJ AUX PUNCT -4.0
TRIGRAM ADJ AUX SCONJ -3.0
TRIGRAM ADJ CCONJ ADJ -0.6665762662748083
TRIGRAM ADJ CCONJ ADP -4.643856189774724
TRIGRAM ADJ CCONJ ADV -5.058893689053569
TRIGRAM ADJ CCONJ CCONJ -6.643856189774724
TRIGRAM ADJ CCONJ DET -2.9434164716336326
TRIGRAM ADJ CCONJ NOUN -5.643856189774724
TRIGRAM ADJ CCONJ PART -5.058893689053569
TRIGRAM ADJ CCONJ PRON -5.058893689053569
TRIGRAM ADJ CCONJ SCONJ -5.643856189774724
TRIGRAM ADJ CCONJ VERB -4.058893689053568
TRIGRAM ADJ DET ADJ -2.094327382548153
TRIGRAM ADJ DET ADV -6.303780748177103
TRIGRAM ADJ DET NOUN -0.7188182474559467
TRIGRAM ADJ DET NUM -4.9818526532897405
TRIGRAM ADJ DET PRON -6.303780748177103
TRIGRAM ADJ DET PROPN -3.718818247455947
TRIGRAM ADJ DET PUNCT -7.303780748177103
TRIGRAM ADJ DET X -5.718818247455947
TRIGRAM ADJ NOUN ADJ -5.718361626138355
TRIGRAM ADJ NOUN ADP -2.7138602339034135
TRIGRAM ADJ NOUN ADV -5.133399125417198
TRIGRAM ADJ NOUN AUX -7.133399125417198
TRIGRAM ADJ NOUN CCONJ -3.811471030529836
TRIGRAM ADJ NOUN DET -2.9634741239748865
TRIGRAM ADJ NOUN NOUN -3.94225763806519
TRIGRAM ADJ NOUN NUM -8.232934798968113
TRIGRAM ADJ NOUN PART -4.665250289678792
TRIGRAM ADJ NOUN PRON -4.07450543636363
TRIGRAM ADJ NOUN PROPN -7.133399125417198
TRIGRAM ADJ NOUN PUNCT -1.6308987848880152
TRIGRAM ADJ NOUN SCONJ -6.455327220304562
TRIGRAM ADJ NOUN STOP -7.718361626138354
TRIGRAM ADJ NOUN VERB -3.773503180330816
TRIGRAM ADJ NOUN X -7.133399125417198
TRIGRAM ADJ NUM CCONJ -2.321928094887362
TRIGRAM ADJ NUM NOUN -0.3219280948873623
TRIGRAM ADJ PART AUX -5.459431618637297
TRIGRAM ADJ PART VERB -0.03316686393519929
TRIGRAM ADJ PRON ADJ -4.906890595608519
TRIGRAM ADJ PRON ADP -6.491853096329675
TRIGRAM ADJ PRON AUX -6.491853096329675
TRIGRAM ADJ PRON DET -3.9068905956085187
TRIGRAM ADJ PRON NOUN -0.7369655941662062
TRIGRAM ADJ PRON PART -4.169925001442313
TRIGRAM ADJ PRON PRON -6.491853096329675
TRIGRAM ADJ PRON PUNCT -3.321928094887362
TRIGRAM ADJ PRON STOP -6.491853096329675
TRIGRAM ADJ PRON VERB -3.321928094887362
TRIGRAM ADJ PROPN ADJ -6.700439718141092
TRIGRAM ADJ PROPN ADP -3.37851162325373
TRIGRAM ADJ PROPN ADV -5.700439718141092
TRIGRAM ADJ PROPN AUX -6.700439718141092
TRIGRAM ADJ PROPN CCONJ -3.0
TRIGRAM ADJ PROPN DET -5.115477217419936
TRIGRAM ADJ PROPN NOUN -5.115477217419936
TRIGRAM ADJ PROPN PART -5.115477217419936
TRIGRAM ADJ PROPN PUNCT -1.1458508664634548
TRIGRAM ADJ PROPN SCONJ -5.700439718141092
TRIGRAM ADJ PROPN STOP -6.700439718141092
TRIGRAM ADJ PROPN VERB -2.53051471669878
TRIGRAM ADJ PUNCT ADJ -4.08746284125034
TRIGRAM ADJ PUNCT ADP -4.08746284125034
TRIGRAM ADJ PUNCT ADV -3.9354597478052895
TRIGRAM ADJ PUNCT CCONJ -3.450032920635048
TRIGRAM ADJ PUNCT DET -3.350497247084133
TRIGRAM ADJ PUNCT NOUN -4.257387842692652
TRIGRAM ADJ PUNCT PART -5.672425341971496
TRIGRAM ADJ PUNCT SCONJ -4.08746284125034
TRIGRAM ADJ PUNCT STOP -1.1699250014423124
TRIGRAM ADJ PUNCT VERB -4.257387842692652
TRIGRAM ADJ SCONJ ADP -4.459431618637297
TRIGRAM ADJ SCONJ CCONJ -4.459431618637297
TRIGRAM ADJ SCONJ DET -1.8744691179161412
TRIGRAM ADJ SCONJ PART -3.4594316186372978
TRIGRAM ADJ SCONJ PRON -2.8744691179161412
TRIGRAM ADJ SCONJ VERB -1.2895066171949847
TRIGRAM ADJ VERB ADP -4.807354922057604
TRIGRAM ADJ VERB ADV -3.8073549220576046
TRIGRAM ADJ VERB CCONJ -3.8073549220576046
TRIGRAM ADJ VERB DET -2.485426827170242
TRIGRAM ADJ VERB NOUN -2.485426827170242
TRIGRAM ADJ VERB PART -2.485426827170242
TRIGRAM ADJ VERB PUNCT -4.807354922057604
TRIGRAM ADJ VERB SCONJ -2.8073549220576046
TRIGRAM ADJ VERB VERB -3.222392421336448
TRIGRAM ADJ X ADP -3.8073549220576046
TRIGRAM ADJ X AUX -3.8073549220576046
TRIGRAM ADJ X CCONJ -3.8073549220576046
TRIGRAM ADJ X DET -3.8073549220576046
TRIGRAM ADJ X PRON -3.8073549220576046
TRIGRAM ADJ X PUNCT -1.4854268271702415
TRIGRAM ADJ X X -1.8073549220576042
TRIGRAM ADP ADJ ADJ -4.309855262586788
TRIGRAM ADP ADJ ADP -5.894817763307944
TRIGRAM ADP ADJ CCONJ -5.08746284125034
TRIGRAM ADP ADJ DET -2.9406214529210684
TRIGRAM ADP ADJ NOUN -0.45187426745921533
TRIGRAM ADP ADJ PRON -5.572889668420581
TRIGRAM ADP ADJ PUNCT -5.894817763307944
TRIGRAM ADP ADJ X -7.894817763307945
TRIGRAM ADP ADP DET -0.47393118833241243
TRIGRAM ADP ADP NUM -3.6438561897747253
TRIGRAM ADP ADP PRON -2.321928094887362
TRIGRAM ADP ADV ADJ -2.8073549220576046
TRIGRAM ADP ADV ADP -3.3923174227787602
TRIGRAM ADP ADV ADV -5.392317422778761
TRIGRAM ADP ADV CCONJ -5.392317422778761
TRIGRAM ADP ADV DET -3.070389327891398
TRIGRAM ADP ADV NOUN -4.392317422778761
TRIGRAM ADP ADV NUM -4.392317422778761
TRIGRAM ADP ADV PART -4.392317422778761
TRIGRAM ADP ADV PUNCT -2.3923174227787602
TRIGRAM ADP ADV VERB -1.9328858041414632
TRIGRAM ADP CCONJ ADP -0.8073549220576043
TRIGRAM ADP CCONJ DET -2.8073549220576046
TRIGRAM ADP CCONJ NUM -1.8073549220576042
TRIGRAM ADP DET ADJ -2.343541907993425
TRIGRAM ADP DET ADP -8.919459269111575
TRIGRAM ADP DET ADV -5.993459850555351
TRIGRAM ADP DET DET -9.241387363998935
TRIGRAM ADP DET NOUN -0.805717103062386
TRIGRAM ADP DET NUM -4.919459269111575
TRIGRAM ADP DET PART -8.434032441941332
TRIGRAM ADP DET PRON -4.73359272380024
TRIGRAM ADP DET PROPN -3.31065002643605
TRIGRAM ADP DET PUNCT -9.656424863277781
TRIGRAM ADP DET SCONJ -9.241387363998935
TRIGRAM ADP DET VERB -7.919459269111575
TRIGRAM ADP DET X -5.05156280511892
TRIGRAM ADP NOUN ADJ -4.65062941837015
TRIGRAM ADP NOUN ADP -2.4161641647331282
TRIGRAM ADP NOUN ADV -4.65062941837015
TRIGRAM ADP NOUN AUX -6.73809225962049
TRIGRAM ADP NOUN CCONJ -4.037652541479399
TRIGRAM ADP NOUN DET -2.4161641647331282
TRIGRAM ADP NOUN NOUN -2.905202245455749
TRIGRAM ADP NOUN NUM -5.416164164733129
TRIGRAM ADP NOUN PART -4.831201664011973
TRIGRAM ADP NOUN PRON -4.037652541479399
TRIGRAM ADP NOUN PROPN -7.153129758899334
TRIGRAM ADP NOUN PUNCT -2.471305718925589
TRIGRAM ADP NOUN SCONJ -6.416164164733129
TRIGRAM ADP NOUN STOP -6.416164164733129
TRIGRAM ADP NOUN VERB -6.416164164733129
TRIGRAM ADP NUM ADJ -3.532495080827021
TRIGRAM ADP NUM ADP -4.754887502163469
TRIGRAM ADP NUM ADV -4.339850002884625
TRIGRAM ADP NUM CCONJ -6.339850002884625
TRIGRAM ADP NUM NOUN -0.4818690077570527
TRIGRAM ADP NUM NUM -6.339850002884625
TRIGRAM ADP NUM PROPN -6.339850002884625
TRIGRAM ADP NUM PUNCT -3.7548875021634687
TRIGRAM ADP PART ADJ -6.022367813028454
TRIGRAM ADP PART PART -5.022367813028454
TRIGRAM ADP PART PRON -4.022367813028454
TRIGRAM ADP PART VERB -0.1643868179008823
TRIGRAM ADP PRON ADJ -5.339850002884625
TRIGRAM ADP PRON ADP -3.6394102847435326
TRIGRAM ADP PRON ADV -6.339850002884625
TRIGRAM ADP PRON AUX -6.339850002884625
TRIGRAM ADP PRON CCONJ -5.754887502163469
TRIGRAM ADP PRON DET -2.0179219079972626
TRIGRAM ADP PRON NOUN -2.130396637255675
TRIGRAM ADP PRON PART -4.532495080827021
TRIGRAM ADP PRON PRON -3.4329594072761065
TRIGRAM ADP PRON PUNCT -3.0919224894410395
TRIGRAM ADP PRON SCONJ -7.339850002884625
TRIGRAM ADP PRON STOP -6.339850002884625
TRIGRAM ADP PRON VERB -3.252387161634285
TRIGRAM ADP PROPN CCONJ -0.7369655941662062
TRIGRAM ADP PROPN NOUN -2.321928094887362
TRIGRAM ADP PROPN PUNCT -2.321928094887362
TRIGRAM ADP PUNCT SCONJ 0.0
TRIGRAM ADP STOP STOP 0.0
TRIGRAM ADP VERB NOUN 0.0
TRIGRAM ADP X NUM -0.84799690655495
TRIGRAM ADP X PUNCT -3.1699250014423126
TRIGRAM ADP X STOP -2.1699250014423126
TRIGRAM ADP X VERB -3.1699250014423126
TRIGRAM ADV ADJ ADJ -4.610497592828294
TRIGRAM ADV ADJ ADP -3.0255350921071376
TRIGRAM ADV ADJ ADV -6.417852514885898
TRIGRAM ADV ADJ AUX -5.417852514885898
TRIGRAM ADV ADJ CCONJ -3.9584208962486005
TRIGRAM ADV ADJ DET -4.610497592828294
TRIGRAM ADV ADJ NOUN -1.2280279560058807
TRIGRAM ADV ADJ PART -4.417852514885898
TRIGRAM ADV ADJ PRON -5.832890014164742
TRIGRAM ADV ADJ PROPN -7.417852514885899
TRIGRAM ADV ADJ PUNCT -2.610497592828294
TRIGRAM ADV ADJ SCONJ -5.417852514885898
TRIGRAM ADV ADJ VERB -6.417852514885898
TRIGRAM ADV ADP ADJ -4.469748909622811
TRIGRAM ADV ADP ADP -8.717676423066395
TRIGRAM ADV ADP ADV -7.717676423066396
TRIGRAM ADV ADP DET -0.46028858037374437
TRIGRAM ADV ADP NOUN -3.2914116683642987
TRIGRAM ADV ADP NUM -5.017236704925304
TRIGRAM ADV ADP PART -6.717676423066395
TRIGRAM ADV ADP PRON -3.7176764230663966
TRIGRAM ADV ADP PROPN -8.717676423066395
TRIGRAM ADV ADV ADJ -3.5849625007211565
TRIGRAM ADV ADV ADP -2.0489096004809464
TRIGRAM ADV ADV ADV -3.5849625007211565
TRIGRAM ADV ADV AUX -6.906890595608519
TRIGRAM ADV ADV CCONJ -3.7369655941662066
TRIGRAM ADV ADV DET -2.584962500721156
TRIGRAM ADV ADV NOUN -5.906890595608519
TRIGRAM ADV ADV PART -4.321928094887363
TRIGRAM ADV ADV PRON -5.906890595608519
TRIGRAM ADV ADV PUNCT -2.736965594166206
TRIGRAM ADV ADV SCONJ -6.906890595608519
TRIGRAM ADV ADV VERB -3.321928094887362
TRIGRAM ADV AUX ADJ -1.3219280948873622
TRIGRAM ADV AUX DET -2.321928094887362
TRIGRAM ADV AUX NOUN -3.321928094887362
TRIGRAM ADV AUX PART -3.321928094887362
TRIGRAM ADV AUX PRON -3.321928094887362
TRIGRAM ADV AUX SCONJ -3.321928094887362
TRIGRAM ADV CCONJ ADJ -3.333900736553438
TRIGRAM ADV CCONJ ADP -2.1115083152169905
TRIGRAM ADV CCONJ ADV -3.1115083152169905
TRIGRAM ADV CCONJ DET -1.8314003960242553
TRIGRAM ADV CCONJ NOUN -4.3339007365534385
TRIGRAM ADV CCONJ NUM -4.918863237274595
TRIGRAM ADV CCONJ PART -3.333900736553438
TRIGRAM ADV CCONJ PRON -5.3339007365534385
TRIGRAM ADV CCONJ PROPN -6.9188632372745955
TRIGRAM ADV CCONJ PUNCT -6.9188632372745955
TRIGRAM ADV CCONJ SCONJ -5.3339007365534385
TRIGRAM ADV CCONJ VERB -5.3339007365534385
TRIGRAM ADV DET ADJ -2.0107264065930583
TRIGRAM ADV DET ADV -5.491853096329675
TRIGRAM ADV DET DET -5.754887502163469
TRIGRAM ADV DET NOUN -0.7280874428197532
TRIGRAM ADV DET NUM -5.491853096329675
TRIGRAM ADV DET PART -8.076815597050832
TRIGRAM ADV DET PRON -8.076815597050832
TRIGRAM ADV DET PROPN -4.269460674993227
TRIGRAM ADV DET VERB -7.076815597050832
TRIGRAM ADV DET X -5.754887502163469
TRIGRAM ADV NOUN ADJ -7.076815597050832
TRIGRAM ADV NOUN ADP -2.4918530963296748
TRIGRAM ADV NOUN ADV -5.491853096329675
TRIGRAM ADV NOUN CCONJ -3.7548875021634687
TRIGRAM ADV NOUN DET -1.9893527558004915
TRIGRAM ADV NOUN NOUN -4.754887502163469
TRIGRAM ADV NOUN PART -4.491853096329675
TRIGRAM ADV NOUN PRON -4.754887502163469
TRIGRAM ADV NOUN PROPN -7.076815597050832
TRIGRAM ADV NOUN PUNCT -1.9893527558004915
TRIGRAM ADV NOUN SCONJ -5.491853096329675
TRIGRAM ADV NOUN VERB -4.491853096329675
TRIGRAM ADV NOUN X -5.491853096329675
TRIGRAM ADV NUM ADJ -4.459431618637297
TRIGRAM ADV NUM NOUN -0.13750352374993496
TRIGRAM ADV NUM PUNCT -4.459431618637297
TRIGRAM ADV PART AUX -4.321928094887363
TRIGRAM ADV PART PART -5.058893689053569
TRIGRAM ADV PART PRON -4.058893689053568
TRIGRAM ADV PART VERB -0.2175914350726268
TRIGRAM ADV PRON ADJ -5.523561956057013
TRIGRAM ADV PRON ADP -3.523561956057013
TRIGRAM ADV PRON ADV -4.523561956057013
TRIGRAM ADV PRON AUX -5.523561956057013
TRIGRAM ADV PRON DET -2.3536369546147005
TRIGRAM ADV PRON NOUN -3.2016338611696504
TRIGRAM ADV PRON PART -4.523561956057013
TRIGRAM ADV PRON PRON -3.523561956057013
TRIGRAM ADV PRON PUNCT -2.938599455335857
TRIGRAM ADV PRON STOP -5.523561956057013
TRIGRAM ADV PRON VERB -2.0641303374197157
TRIGRAM ADV PROPN CCONJ -2.321928094887362
TRIGRAM ADV PROPN PART -2.321928094887362
TRIGRAM ADV PROPN PUNCT -0.7369655941662062
TRIGRAM ADV PUNCT ADJ -6.327926835508806
TRIGRAM ADV PUNCT ADP -3.5205719134512017
TRIGRAM ADV PUNCT ADV -3.3893273801729493
TRIGRAM ADV PUNCT AUX -6.327926835508806
TRIGRAM ADV PUNCT CCONJ -4.912889336229962
TRIGRAM ADV PUNCT DET -1.9356094127300452
TRIGRAM ADV PUNCT NOUN -4.74296433478765
TRIGRAM ADV PUNCT PART -4.105534414172357
TRIGRAM ADV PUNCT PRON -6.912889336229961
TRIGRAM ADV PUNCT PROPN -7.912889336229962
TRIGRAM ADV PUNCT SCONJ -5.327926835508806
TRIGRAM ADV PUNCT STOP -2.389327380172949
TRIGRAM ADV PUNCT VERB -2.5205719134512017
TRIGRAM ADV SCONJ ADJ -3.8744691179161412
TRIGRAM ADV SCONJ ADP -4.459431618637297
TRIGRAM ADV SCONJ ADV -4.459431618637297
TRIGRAM ADV SCONJ AUX -4.459431618637297
TRIGRAM ADV SCONJ CCONJ -4.459431618637297
TRIGRAM ADV SCONJ DET -1.5525410230287788
TRIGRAM ADV SCONJ PART -2.652076696579693
TRIGRAM ADV SCONJ PRON -5.459431618637297
TRIGRAM ADV SCONJ VERB -2.137503523749935
TRIGRAM ADV STOP STOP 0.0
TRIGRAM ADV VERB ADJ -4.5579954531208875
TRIGRAM ADV VERB ADP -3.64045761331286
TRIGRAM ADV VERB ADV -3.1429579538420436
TRIGRAM ADV VERB CCONJ -5.405992359675837
TRIGRAM ADV VERB DET -1.557995453120887
TRIGRAM ADV VERB NOUN -4.5579954531208875
TRIGRAM ADV VERB NUM -6.727920454563199
TRIGRAM ADV VERB PART -2.9730329523997305
TRIGRAM ADV VERB PRON -6.142957953842043
TRIGRAM ADV VERB PUNCT -3.1429579538420436
TRIGRAM ADV VERB SCONJ -4.5579954531208875
TRIGRAM ADV VERB VERB -4.2684888359259014
TRIGRAM ADV X DET 0.0
TRIGRAM AUX ADJ ADP -2.2302976194217945
TRIGRAM AUX ADJ ADV -5.34577483684173
TRIGRAM AUX ADJ CCONJ -3.2302976194217945
TRIGRAM AUX ADJ DET -3.2302976194217945
TRIGRAM AUX ADJ NOUN -3.760812336120574
TRIGRAM AUX ADJ PART -2.608809242675524
TRIGRAM AUX ADJ PUNCT -2.1758498353994176
TRIGRAM AUX ADJ SCONJ -3.608809242675524
TRIGRAM AUX ADJ X -6.930737337562887
TRIGRAM AUX ADP ADJ -1.5849625007211563
TRIGRAM AUX ADP DET -1.5849625007211563
TRIGRAM AUX ADP NOUN -1.5849625007211563
TRIGRAM AUX ADV ADJ -0.8524428115861422
TRIGRAM AUX ADV ADP -6.022367813028454
TRIGRAM AUX ADV ADV -4.437405312307298
TRIGRAM AUX ADV CCONJ -4.437405312307298
TRIGRAM AUX ADV DET -3.0223678130284544
TRIGRAM AUX ADV NOUN -4.437405312307298
TRIGRAM AUX ADV NUM -6.022367813028454
TRIGRAM AUX ADV PART -5.022367813028454
TRIGRAM AUX ADV PRON -4.437405312307298
TRIGRAM AUX ADV PUNCT -4.437405312307298
TRIGRAM AUX ADV STOP -6.022367813028454
TRIGRAM AUX ADV VERB -6.022367813028454
TRIGRAM AUX CCONJ ADJ -3.321928094887362
TRIGRAM AUX CCONJ ADP -3.321928094887362
TRIGRAM AUX CCONJ ADV -3.321928094887362
TRIGRAM AUX CCONJ DET -0.7369655941662062
TRIGRAM AUX CCONJ NOUN -3.321928094887362
TRIGRAM AUX DET ADJ -1.282933963271499
TRIGRAM AUX DET ADV -4.189824558880018
TRIGRAM AUX DET NOUN -1.019899557437705
TRIGRAM AUX DET NUM -4.6048620581588615
TRIGRAM AUX NOUN ADJ -4.392317422778761
TRIGRAM AUX NOUN ADP -3.3923174227787602
TRIGRAM AUX NOUN ADV -4.392317422778761
TRIGRAM AUX NOUN DET -2.3923174227787602
TRIGRAM AUX NOUN NOUN -2.3923174227787602
TRIGRAM AUX NOUN NUM -4.392317422778761
TRIGRAM AUX NOUN PART -4.392317422778761
TRIGRAM AUX NOUN PRON -3.3923174227787602
TRIGRAM AUX NOUN PUNCT -2.070389327891398
TRIGRAM AUX NUM ADP -1.0
TRIGRAM AUX NUM ADV -2.584962500721156
TRIGRAM AUX NUM NOUN -2.584962500721156
TRIGRAM AUX NUM PUNCT -2.584962500721156
TRIGRAM AUX PART VERB 0.0
TRIGRAM AUX PRON ADP -2.584962500721156
TRIGRAM AUX PRON PRON -0.5849625007211563
TRIGRAM AUX PRON VERB -2.584962500721156
TRIGRAM AUX PROPN PUNCT 0.0
TRIGRAM AUX PUNCT ADP -2.584962500721156
TRIGRAM AUX PUNCT ADV -1.0
TRIGRAM AUX PUNCT VERB -1.5849625007211563
TRIGRAM AUX SCONJ DET -0.7369655941662062
TRIGRAM AUX SCONJ PART -2.321928094887362
TRIGRAM AUX SCONJ VERB -2.321928094887362
TRIGRAM AUX VERB ADP -1.137503523749935
TRIGRAM AUX VERB DET -3.4594316186372978
TRIGRAM AUX VERB PART -1.8744691179161412
TRIGRAM AUX VERB PUNCT -3.4594316186372978
TRIGRAM AUX VERB SCONJ -3.4594316186372978
TRIGRAM CCONJ ADJ ADJ -4.722466024471092
TRIGRAM CCONJ ADJ ADP -5.459431618637297
TRIGRAM CCONJ ADJ CCONJ -5.459431618637297
TRIGRAM CCONJ ADJ DET -4.044394119358453
TRIGRAM CCONJ ADJ NOUN -0.536599479159757
TRIGRAM CCONJ ADJ PART -7.044394119358453
TRIGRAM CCONJ ADJ PRON -7.044394119358453
TRIGRAM CCONJ ADJ PROPN -5.459431618637297
TRIGRAM CCONJ ADJ PUNCT -3.137503523749935
TRIGRAM CCONJ ADJ SCONJ -7.044394119358453
TRIGRAM CCONJ ADJ X -7.044394119358453
TRIGRAM CCONJ ADP ADJ -4.098032082960526
TRIGRAM CCONJ ADP ADP -7.098032082960527
TRIGRAM CCONJ ADP DET -0.43982060020873204
TRIGRAM CCONJ ADP NOUN -2.7057146601817665
TRIGRAM CCONJ ADP NUM -7.098032082960527
TRIGRAM CCONJ ADP PRON -4.776103988073165
TRIGRAM CCONJ ADV ADJ -4.247927513443586
TRIGRAM CCONJ ADV ADP -1.7625006862733439
TRIGRAM CCONJ ADV ADV -4.569855608330949
TRIGRAM CCONJ ADV CCONJ -4.569855608330949
TRIGRAM CCONJ ADV DET -2.321928094887362
TRIGRAM CCONJ ADV NOUN -5.569855608330948
TRIGRAM CCONJ ADV NUM -6.569855608330948
TRIGRAM CCONJ ADV PART -3.2479275134435857
TRIGRAM CCONJ ADV PRON -6.569855608330948
TRIGRAM CCONJ ADV PROPN -6.569855608330948
TRIGRAM CCONJ ADV PUNCT -4.247927513443586
TRIGRAM CCONJ ADV SCONJ -5.569855608330948
TRIGRAM CCONJ ADV VERB -2.8694158901898557
TRIGRAM CCONJ AUX ADJ -3.0
TRIGRAM CCONJ AUX ADV -1.0
TRIGRAM CCONJ AUX DET -3.0
TRIGRAM CCONJ AUX NOUN -3.0
TRIGRAM CCONJ AUX VERB -3.0
TRIGRAM CCONJ CCONJ ADJ -3.0874628412503395
TRIGRAM CCONJ CCONJ ADP -3.0874628412503395
TRIGRAM CCONJ CCONJ DET -1.7655347463629771
TRIGRAM CCONJ CCONJ NOUN -3.0874628412503395
TRIGRAM CCONJ CCONJ PART -3.0874628412503395
TRIGRAM CCONJ CCONJ PRON -3.0874628412503395
TRIGRAM CCONJ CCONJ VERB -3.0874628412503395
TRIGRAM CCONJ DET ADJ -1.9020248404367026
TRIGRAM CCONJ DET ADP -8.531381460516313
TRIGRAM CCONJ DET ADV -6.209453365628949
TRIGRAM CCONJ DET DET -8.531381460516313
TRIGRAM CCONJ DET NOUN -0.8803297693373836
TRIGRAM CCONJ DET NUM -4.443918619265973
TRIGRAM CCONJ DET PRON -5.361456459074
TRIGRAM CCONJ DET PROPN -3.5313814605163123
TRIGRAM CCONJ DET X -6.209453365628949
TRIGRAM CCONJ NOUN ADJ -5.9886846867721655
TRIGRAM CCONJ NOUN ADP -2.465122730715153
TRIGRAM CCONJ NOUN ADV -4.666756591884804
TRIGRAM CCONJ NOUN CCONJ -4.181329764714563
TRIGRAM CCONJ NOUN DET -2.9012218455218264
TRIGRAM CCONJ NOUN NOUN -3.988684686772166
TRIGRAM CCONJ NOUN PART -5.40372218605101
TRIGRAM CCONJ NOUN PRON -3.2882449686310737
TRIGRAM CCONJ NOUN PROPN -6.988684686772166
TRIGRAM CCONJ NOUN PUNCT -1.7032824679099177
TRIGRAM CCONJ NOUN STOP -6.988684686772166
TRIGRAM CCONJ NOUN VERB -3.988684686772166
TRIGRAM CCONJ NUM ADJ -3.3923174227787602
TRIGRAM CCONJ NUM ADP -4.392317422778761
TRIGRAM CCONJ NUM NOUN -0.4854268271702417
TRIGRAM CCONJ NUM PROPN -4.392317422778761
TRIGRAM CCONJ NUM PUNCT -4.392317422778761
TRIGRAM CCONJ NUM VERB -4.392317422778761
TRIGRAM CCONJ PART ADP -5.832890014164742
TRIGRAM CCONJ PART ADV -5.832890014164742
TRIGRAM CCONJ PART AUX -6.832890014164742
TRIGRAM CCONJ PART DET -5.832890014164742
TRIGRAM CCONJ PART NOUN -6.832890014164742
TRIGRAM CCONJ PART PART -4.5109619192773796
TRIGRAM CCONJ PART PRON -2.9259994185562235
TRIGRAM CCONJ PART PUNCT -5.832890014164742
TRIGRAM CCONJ PART VERB -0.4405725913859815
TRIGRAM CCONJ PRON ADJ -4.247927513443586
TRIGRAM CCONJ PRON ADP -4.247927513443586
TRIGRAM CCONJ PRON ADV -3.8328900141647417
TRIGRAM CCONJ PRON AUX -4.247927513443586
TRIGRAM CCONJ PRON CCONJ -5.832890014164742
TRIGRAM CCONJ PRON DET -3.5109619192773796
TRIGRAM CCONJ PRON NOUN -2.6629650127224296
TRIGRAM CCONJ PRON NUM -5.832890014164742
TRIGRAM CCONJ PRON PART -3.8328900141647417
TRIGRAM CCONJ PRON PRON -2.8328900141647417
TRIGRAM CCONJ PRON PUNCT -3.2479275134435857
TRIGRAM CCONJ PRON VERB -2.5109619192773796
TRIGRAM CCONJ PROPN ADP -2.584962500721156
TRIGRAM CCONJ PROPN ADV -4.584962500721157
TRIGRAM CCONJ PROPN DET -3.5849625007211565
TRIGRAM CCONJ PROPN NOUN -3.5849625007211565
TRIGRAM CCONJ PROPN PART -4.584962500721157
TRIGRAM CCONJ PROPN PRON -3.5849625007211565
TRIGRAM CCONJ PROPN PROPN -4.584962500721157
TRIGRAM CCONJ PROPN PUNCT -1.4150374992788437
TRIGRAM CCONJ PROPN VERB -3.5849625007211565
TRIGRAM CCONJ PUNCT ADJ -4.491853096329675
TRIGRAM CCONJ PUNCT ADP -2.6844981742720706
TRIGRAM CCONJ PUNCT ADV -3.1699250014423126
TRIGRAM CCONJ PUNCT AUX -4.491853096329675
TRIGRAM CCONJ PUNCT DET -1.7914133781885828
TRIGRAM CCONJ PUNCT PART -3.9068905956085187
TRIGRAM CCONJ PUNCT PRON -3.9068905956085187
TRIGRAM CCONJ PUNCT SCONJ -3.9068905956085187
TRIGRAM CCONJ PUNCT VERB -2.6844981742720706
TRIGRAM CCONJ SCONJ ADP -3.9068905956085187
TRIGRAM CCONJ SCONJ ADV -4.906890595608519
TRIGRAM CCONJ SCONJ AUX -3.9068905956085187
TRIGRAM CCONJ SCONJ DET -1.5849625007211563
TRIGRAM CCONJ SCONJ NOUN -4.906890595608519
TRIGRAM CCONJ SCONJ PART -3.9068905956085187
TRIGRAM CCONJ SCONJ PRON -4.906890595608519
TRIGRAM CCONJ SCONJ PUNCT -4.906890595608519
TRIGRAM CCONJ SCONJ SCONJ -4.906890595608519
TRIGRAM CCONJ SCONJ VERB -1.7369655941662063
TRIGRAM CCONJ STOP STOP 0.0
TRIGRAM CCONJ VERB ADJ -4.016301812329101
TRIGRAM CCONJ VERB ADP -2.5688428353578794
TRIGRAM CCONJ VERB ADV -3.0834160081876374
TRIGRAM CCONJ VERB CCONJ -6.475733430966398
TRIGRAM CCONJ VERB DET -2.1181814263483143
TRIGRAM CCONJ VERB NOUN -3.1538053360790355
TRIGRAM CCONJ VERB PART -3.0834160081876374
TRIGRAM CCONJ VERB PRON -4.890770930245242
TRIGRAM CCONJ VERB PUNCT -4.475733430966398
TRIGRAM CCONJ VERB SCONJ -3.5688428353578794
TRIGRAM CCONJ VERB VERB -5.8907709302452425
TRIGRAM CCONJ X PUNCT -1.5849625007211563
TRIGRAM CCONJ X X -0.5849625007211563
TRIGRAM DET ADJ ADJ -3.9418504339623186
TRIGRAM DET ADJ ADP -6.277453465746757
TRIGRAM DET ADJ ADV -8.347842793638156
TRIGRAM DET ADJ AUX -8.669770888525518
TRIGRAM DET ADJ CCONJ -5.715574578138643
TRIGRAM DET ADJ DET -5.762880292916999
TRIGRAM DET ADJ NOUN -0.43615121176581567
TRIGRAM DET ADJ NUM -8.669770888525518
TRIGRAM DET ADJ PART -8.347842793638156
TRIGRAM DET ADJ PRON -4.862415966467914
TRIGRAM DET ADJ PROPN -4.19403745755912
TRIGRAM DET ADJ PUNCT -5.24350613382342
TRIGRAM DET ADJ VERB -6.146208932468505
TRIGRAM DET ADJ X -7.669770888525518
TRIGRAM DET ADP ADV -3.321928094887362
TRIGRAM DET ADP NOUN -0.23446525363702297
TRIGRAM DET ADP PRON -4.321928094887363
TRIGRAM DET ADV ADJ -1.3219280948873622
TRIGRAM DET ADV ADP -6.321928094887362
TRIGRAM DET ADV ADV -3.0
TRIGRAM DET ADV CCONJ -6.321928094887362
TRIGRAM DET ADV DET -5.321928094887363
TRIGRAM DET ADV NOUN -1.9296106721086022
TRIGRAM DET ADV PART -6.321928094887362
TRIGRAM DET ADV PRON -6.321928094887362
TRIGRAM DET ADV PROPN -5.321928094887363
TRIGRAM DET ADV PUNCT -3.7369655941662066
TRIGRAM DET ADV VERB -4.7369655941662066
TRIGRAM DET CCONJ DET 0.0
TRIGRAM DET DET ADJ -2.1699250014423126
TRIGRAM DET DET NOUN -1.1699250014423124
TRIGRAM DET DET PROPN -1.84799690655495
TRIGRAM DET DET VERB -4.169925001442313
TRIGRAM DET NOUN ADJ -5.584962500721157
TRIGRAM DET NOUN ADP -3.5688428353578794
TRIGRAM DET NOUN ADV -5.490840323356607
TRIGRAM DET NOUN AUX -7.016301812329101
TRIGRAM DET NOUN CCONJ -4.374195404504335
TRIGRAM DET NOUN DET -2.013572019573528
TRIGRAM DET NOUN NOUN -3.5688428353578794
TRIGRAM DET NOUN NUM -7.25334100962995
TRIGRAM DET NOUN PART -4.7119677774564765
TRIGRAM DET NOUN PRON -2.8199045995255974
TRIGRAM DET NOUN PROPN -6.10649962130068
TRIGRAM DET NOUN PUNCT -2.5099491463043107
TRIGRAM DET NOUN SCONJ -6.178052882325713
TRIGRAM DET NOUN STOP -8.25334100962995
TRIGRAM DET NOUN VERB -3.846376810886788
TRIGRAM DET NOUN X -5.521537120579523
TRIGRAM DET NUM ADJ -3.578267848147148
TRIGRAM DET NUM ADP -4.7481928495894605
TRIGRAM DET NUM ADV -6.748192849589461
TRIGRAM DET NUM AUX -7.74819284958946
TRIGRAM DET NUM CCONJ -5.426264754702098
TRIGRAM DET NUM DET -4.288761230952163
TRIGRAM DET NUM NOUN -0.8293296123148659
TRIGRAM DET NUM NUM -6.748192849589461
TRIGRAM DET NUM PRON -5.426264754702098
TRIGRAM DET NUM PROPN -5.426264754702098
TRIGRAM DET NUM PUNCT -3.0477531314483683
TRIGRAM DET NUM VERB -4.426264754702098
TRIGRAM DET NUM X -7.74819284958946
TRIGRAM DET PART ADJ -3.8073549220576046
TRIGRAM DET PART NOUN -2.222392421336448
TRIGRAM DET PART VERB -0.4854268271702417
TRIGRAM DET PRON ADJ -5.749534267669262
TRIGRAM DET PRON ADP -5.071462362556624
TRIGRAM DET PRON ADV -4.486499861835468
TRIGRAM DET PRON AUX -4.3710226444155325
TRIGRAM DET PRON CCONJ -5.26410744049902
TRIGRAM DET PRON DET -3.547900406499611
TRIGRAM DET PRON NOUN -3.8235348491130385
TRIGRAM DET PRON PART -3.371022644415532
TRIGRAM DET PRON PRON -5.071462362556624
TRIGRAM DET PRON PUNCT -4.612030743919327
TRIGRAM DET PRON SCONJ -8.071462362556625
TRIGRAM DET PRON VERB -0.9839995213062849
TRIGRAM DET PROPN ADJ -7.906890595608519
TRIGRAM DET PROPN ADP -3.84799690655495
TRIGRAM DET PROPN ADV -5.684498174272071
TRIGRAM DET PROPN AUX -5.404390255079336
TRIGRAM DET PROPN CCONJ -3.4043902550793352
TRIGRAM DET PROPN DET -4.134301091711591
TRIGRAM DET PROPN NOUN -4.906890595608519
TRIGRAM DET PROPN NUM -9.491853096329676
TRIGRAM DET PROPN PART -5.0324214776923775
TRIGRAM DET PROPN PRON -6.169925001442312
TRIGRAM DET PROPN PROPN -4.206450877467426
TRIGRAM DET PROPN PUNCT -1.4150374992788437
TRIGRAM DET PROPN SCONJ -6.684498174272071
TRIGRAM DET PROPN STOP -6.169925001442312
TRIGRAM DET PROPN VERB -2.3833286395515056
TRIGRAM DET PROPN X -6.906890595608519
TRIGRAM DET PUNCT ADV -2.0
TRIGRAM DET PUNCT DET -1.4150374992788437
TRIGRAM DET PUNCT STOP -1.4150374992788437
TRIGRAM DET SCONJ AUX -2.0
TRIGRAM DET SCONJ DET -1.0
TRIGRAM DET SCONJ VERB -2.0
TRIGRAM DET VERB ADJ -3.8073549220576046
TRIGRAM DET VERB ADP -3.222392421336448
TRIGRAM DET VERB ADV -4.807354922057604
TRIGRAM DET VERB CCONJ -4.807354922057604
TRIGRAM DET VERB DET -4.807354922057604
TRIGRAM DET VERB NOUN -0.8073549220576043
TRIGRAM DET VERB PUNCT -4.807354922057604
TRIGRAM DET VERB SCONJ -3.222392421336448
TRIGRAM DET X ADJ -6.533978572002351
TRIGRAM DET X ADP -4.797012977836145
TRIGRAM DET X AUX -6.118941072723507
TRIGRAM DET X CCONJ -4.418501354582415
TRIGRAM DET X DET -4.797012977836145
TRIGRAM DET X NOUN -6.533978572002351
TRIGRAM DET X NUM -8.118941072723507
TRIGRAM DET X PART -4.311586150665904
TRIGRAM DET X PRON -6.533978572002351
TRIGRAM DET X PROPN -5.797012977836145
TRIGRAM DET X PUNCT -1.9691939532188254
TRIGRAM DET X SCONJ -7.118941072723508
TRIGRAM DET X STOP -8.118941072723507
TRIGRAM DET X VERB -3.4185013545824154
TRIGRAM DET X X -1.3115861506659034
TRIGRAM NOUN ADJ ADJ -3.700439718141092
TRIGRAM NOUN ADJ ADP -3.799975391692007
TRIGRAM NOUN ADJ CCONJ -4.285402218862249
TRIGRAM NOUN ADJ DET -3.799975391692007
TRIGRAM NOUN ADJ NOUN -0.6186456269774449
TRIGRAM NOUN ADJ PRON -5.60733031374961
TRIGRAM NOUN ADJ PROPN -5.60733031374961
TRIGRAM NOUN ADJ PUNCT -5.022367813028454
TRIGRAM NOUN ADJ VERB -7.607330313749611
TRIGRAM NOUN ADP ADJ -3.8396024658127175
TRIGRAM NOUN ADP ADP -6.5584207132686645
TRIGRAM NOUN ADP ADV -6.973458212547508
TRIGRAM NOUN ADP CCONJ -8.143383213989821
TRIGRAM NOUN ADP DET -0.4762716719147927
TRIGRAM NOUN ADP NOUN -2.983511877211431
TRIGRAM NOUN ADP NUM -6.236492618381302
TRIGRAM NOUN ADP PART -5.8954557005462345
TRIGRAM NOUN ADP PRON -5.236492618381302
TRIGRAM NOUN ADP PROPN -8.558420713268665
TRIGRAM NOUN ADP VERB -10.143383213989821
TRIGRAM NOUN ADP X -8.558420713268665
TRIGRAM NOUN ADV ADJ -4.447458976971221
TRIGRAM NOUN ADV ADP -1.5145731728297585
TRIGRAM NOUN ADV ADV -5.099535673550915
TRIGRAM NOUN ADV AUX -6.321928094887362
TRIGRAM NOUN ADV CCONJ -3.6589630821649335
TRIGRAM NOUN ADV DET -2.480625840906421
TRIGRAM NOUN ADV NOUN -3.819427754358179
TRIGRAM NOUN ADV NUM -7.906890595608519
TRIGRAM NOUN ADV PART -5.099535673550915
TRIGRAM NOUN ADV PRON -5.584962500721157
TRIGRAM NOUN ADV PUNCT -4.099535673550915
TRIGRAM NOUN ADV SCONJ -6.906890595608519
TRIGRAM NOUN ADV VERB -3.15200309344505
TRIGRAM NOUN AUX ADJ -1.7842713089445628
TRIGRAM NOUN AUX ADP -4.954196310386876
TRIGRAM NOUN AUX ADV -2.253756592245783
TRIGRAM NOUN AUX DET -2.7842713089445628
TRIGRAM NOUN AUX NOUN -2.954196310386875
TRIGRAM NOUN AUX PART -4.36923380966572
TRIGRAM NOUN AUX PRON -5.954196310386876
TRIGRAM NOUN AUX PUNCT -4.36923380966572
TRIGRAM NOUN AUX SCONJ -4.954196310386876
TRIGRAM NOUN AUX VERB -4.36923380966572
TRIGRAM NOUN CCONJ ADJ -4.084808387804362
TRIGRAM NOUN CCONJ ADP -3.561246431747349
TRIGRAM NOUN CCONJ ADV -4.084808387804362
TRIGRAM NOUN CCONJ AUX -7.084808387804361
TRIGRAM NOUN CCONJ CCONJ -7.084808387804361
TRIGRAM NOUN CCONJ DET -1.6172028377213643
TRIGRAM NOUN CCONJ NOUN -2.4700985436891534
TRIGRAM NOUN CCONJ NUM -6.277453465746757
TRIGRAM NOUN CCONJ PART -3.799406168942113
TRIGRAM NOUN CCONJ PRON -5.499845887083206
TRIGRAM NOUN CCONJ PROPN -7.084808387804361
TRIGRAM NOUN CCONJ PUNCT -6.762880292916999
TRIGRAM NOUN CCONJ SCONJ -5.384368669663269
TRIGRAM NOUN CCONJ VERB -2.9762839310261926
TRIGRAM NOUN CCONJ X -9.084808387804362
TRIGRAM NOUN DET ADJ -2.1380065847328513
TRIGRAM NOUN DET ADP -7.7490313820402035
TRIGRAM NOUN DET ADV -7.9416764599826
TRIGRAM NOUN DET NOUN -0.9051103307511692
TRIGRAM NOUN DET NUM -5.661568540789864
TRIGRAM NOUN DET PART -9.164068881319047
TRIGRAM NOUN DET PRON -5.501103868596618
TRIGRAM NOUN DET PROPN -2.872514435475204
TRIGRAM NOUN DET PUNCT -10.749031382040204
TRIGRAM NOUN DET VERB -8.749031382040204
TRIGRAM NOUN DET X -4.409181379155579
TRIGRAM NOUN NOUN ADJ -5.192645077942396
TRIGRAM NOUN NOUN ADP -2.551539499183706
TRIGRAM NOUN NOUN ADV -5.497499659470817
TRIGRAM NOUN NOUN AUX -7.263034405833794
TRIGRAM NOUN NOUN CCONJ -3.4974996594708165
TRIGRAM NOUN NOUN DET -2.5405683813627027
TRIGRAM NOUN NOUN NOUN -4.415037499278844
TRIGRAM NOUN NOUN NUM -7.263034405833794
TRIGRAM NOUN NOUN PART -5.777607578663552
TRIGRAM NOUN NOUN PRON -4.45567948377619
TRIGRAM NOUN NOUN PROPN -7.263034405833794
TRIGRAM NOUN NOUN PUNCT -1.6840956927404076
TRIGRAM NOUN NOUN SCONJ -7.263034405833794
TRIGRAM NOUN NOUN STOP -7.263034405833794
TRIGRAM NOUN NOUN VERB -4.125530882083859
TRIGRAM NOUN NOUN X -7.0
TRIGRAM NOUN NUM ADJ -3.8073549220576046
TRIGRAM NOUN NUM ADP -3.8073549220576046
TRIGRAM NOUN NUM CCONJ -4.807354922057604
TRIGRAM NOUN NUM DET -2.637429920615292
TRIGRAM NOUN NUM NOUN -1.106915203916512
TRIGRAM NOUN NUM NUM -5.807354922057605
TRIGRAM NOUN NUM PRON -4.807354922057604
TRIGRAM NOUN NUM PUNCT -3.4854268271702415
TRIGRAM NOUN NUM VERB -4.807354922057604
TRIGRAM NOUN NUM X -5.807354922057605
TRIGRAM NOUN PART ADJ -8.285402218862249
TRIGRAM NOUN PART ADP -8.285402218862249
TRIGRAM NOUN PART ADV -7.285402218862249
TRIGRAM NOUN PART AUX -3.53051471669878
TRIGRAM NOUN PART NUM -8.285402218862249
TRIGRAM NOUN PART PART -4.963474123974886
TRIGRAM NOUN PART PRON -5.115477217419936
TRIGRAM NOUN PART VERB -0.25749622229236385
TRIGRAM NOUN PRON ADJ -6.748192849589461
TRIGRAM NOUN PRON ADP -3.089981366837666
TRIGRAM NOUN PRON ADV -4.7481928495894605
TRIGRAM NOUN PRON AUX -5.3558754268107
TRIGRAM NOUN PRON CCONJ -4.703798730231007
TRIGRAM NOUN PRON DET -3.940837927531856
TRIGRAM NOUN PRON NOUN -6.1632303488683045
TRIGRAM NOUN PRON NUM -8.74819284958946
TRIGRAM NOUN PRON PART -3.660730008339121
TRIGRAM NOUN PRON PRON -6.047753131448369
TRIGRAM NOUN PRON PROPN -9.74819284958946
TRIGRAM NOUN PRON PUNCT -2.305249353740732
TRIGRAM NOUN PRON SCONJ -6.578267848147148
TRIGRAM NOUN PRON STOP -8.74819284958946
TRIGRAM NOUN PRON VERB -1.3906408449713765
TRIGRAM NOUN PROPN ADP -2.938599455335857
TRIGRAM NOUN PROPN ADV -6.523561956057013
TRIGRAM NOUN PROPN AUX -5.523561956057013
TRIGRAM NOUN PROPN CCONJ -3.716207033999409
TRIGRAM NOUN PROPN DET -6.523561956057013
TRIGRAM NOUN PROPN NOUN -5.523561956057013
TRIGRAM NOUN PROPN PART -4.938599455335857
TRIGRAM NOUN PROPN PRON -6.523561956057013
TRIGRAM NOUN PROPN PROPN -2.823122237915921
TRIGRAM NOUN PROPN PUNCT -1.5235619560570128
TRIGRAM NOUN PROPN SCONJ -6.523561956057013
TRIGRAM NOUN PROPN VERB -2.6166713604484944
TRIGRAM NOUN PROPN X -5.523561956057013
TRIGRAM NOUN PUNCT ADJ -6.106432077816929
TRIGRAM NOUN PUNCT ADP -4.180432659260705
TRIGRAM NOUN PUNCT ADV -3.784503982929567
TRIGRAM NOUN PUNCT AUX -7.553891054788151
TRIGRAM NOUN PUNCT CCONJ -4.428360172704291
TRIGRAM NOUN PUNCT DET -3.0020954180021935
TRIGRAM NOUN PUNCT NOUN -4.638283242078523
TRIGRAM NOUN PUNCT NUM -7.553891054788151
TRIGRAM NOUN PUNCT PART -5.258435171261979
TRIGRAM NOUN PUNCT PRON -5.58705791872335
TRIGRAM NOUN PUNCT PROPN -7.10643207781693
TRIGRAM NOUN PUNCT PUNCT -10.01332267342545
TRIGRAM NOUN PUNCT SCONJ -4.521469577095773
TRIGRAM NOUN PUNCT STOP -1.0974432945896744
TRIGRAM NOUN PUNCT VERB -3.9258598321751084
TRIGRAM NOUN PUNCT X -8.013322673425447
TRIGRAM NOUN SCONJ ADJ -5.235216461694032
TRIGRAM NOUN SCONJ ADP -4.820178962415188
TRIGRAM NOUN SCONJ ADV -4.498250867527826
TRIGRAM NOUN SCONJ AUX -4.820178962415188
TRIGRAM NOUN SCONJ CCONJ -6.820178962415189
TRIGRAM NOUN SCONJ DET -1.6502539609728755
TRIGRAM NOUN SCONJ PART -1.8201789624151878
TRIGRAM NOUN SCONJ PRON -4.820178962415188
TRIGRAM NOUN SCONJ PUNCT -6.820178962415189
TRIGRAM NOUN SCONJ SCONJ -6.820178962415189
TRIGRAM NOUN SCONJ VERB -2.3607473437778905
TRIGRAM NOUN STOP STOP 0.0
TRIGRAM NOUN VERB ADJ -3.7104933828050153
TRIGRAM NOUN VERB ADP -2.415037499278844
TRIGRAM NOUN VERB ADV -2.9801004425622954
TRIGRAM NOUN VERB CCONJ -5.0
TRIGRAM NOUN VERB DET -2.710493382805015
TRIGRAM NOUN VERB NOUN -3.777607578663552
TRIGRAM NOUN VERB NUM -5.584962500721157
TRIGRAM NOUN VERB PART -2.812372996824229
TRIGRAM NOUN VERB PRON -5.169925001442312
TRIGRAM NOUN VERB PROPN -8.169925001442312
TRIGRAM NOUN VERB PUNCT -5.710493382805016
TRIGRAM NOUN VERB SCONJ -3.7104933828050153
TRIGRAM NOUN VERB STOP -9.169925001442314
TRIGRAM NOUN VERB VERB -4.040641984497346
TRIGRAM NOUN X ADP -3.6553518286125546
TRIGRAM NOUN X ADV -5.392317422778761
TRIGRAM NOUN X CCONJ -3.9772799234999168
TRIGRAM NOUN X DET -6.977279923499917
TRIGRAM NOUN X NOUN -6.977279923499917
TRIGRAM NOUN X NUM -5.977279923499917
TRIGRAM NOUN X PART -5.977279923499917
TRIGRAM NOUN X PRON -6.977279923499917
TRIGRAM NOUN X PUNCT -1.304854581528421
TRIGRAM NOUN X SCONJ -5.392317422778761
TRIGRAM NOUN X STOP -5.977279923499917
TRIGRAM NOUN X VERB -3.517848304862619
TRIGRAM NOUN X X -2.0230836131130414
TRIGRAM NUM ADJ ADJ -4.392317422778761
TRIGRAM NUM ADJ ADP -3.3923174227787602
TRIGRAM NUM ADJ DET -5.392317422778761
TRIGRAM NUM ADJ NOUN -0.4854268271702417
TRIGRAM NUM ADJ PART -4.392317422778761
TRIGRAM NUM ADJ PUNCT -4.392317422778761
TRIGRAM NUM ADJ X -5.392317422778761
TRIGRAM NUM ADP ADP -5.247927513443585
TRIGRAM NUM ADP DET -0.4405725913859815
TRIGRAM NUM ADP NUM -2.9259994185562235
TRIGRAM NUM ADP PRON -3.2479275134435857
TRIGRAM NUM ADV ADJ -1.8744691179161412
TRIGRAM NUM ADV ADP -3.4594316186372978
TRIGRAM NUM ADV NOUN -0.8744691179161412
TRIGRAM NUM ADV VERB -3.4594316186372978
TRIGRAM NUM AUX ADJ -1.0
TRIGRAM NUM AUX DET -1.0
TRIGRAM NUM CCONJ ADJ -2.584962500721156
TRIGRAM NUM CCONJ DET -3.5849625007211565
TRIGRAM NUM CCONJ NOUN -2.584962500721156
TRIGRAM NUM CCONJ NUM -1.2630344058337937
TRIGRAM NUM CCONJ PRON -3.5849625007211565
TRIGRAM NUM CCONJ VERB -3.5849625007211565
TRIGRAM NUM DET ADJ -2.523561956057013
TRIGRAM NUM DET NOUN -1.0641303374197155
TRIGRAM NUM DET NUM -4.523561956057013
TRIGRAM NUM DET PRON -4.523561956057013
TRIGRAM NUM DET PROPN -4.523561956057013
TRIGRAM NUM DET X -2.201633861169651
TRIGRAM NUM NOUN ADJ -6.672425341971495
TRIGRAM NUM NOUN ADP -3.2573878426926517
TRIGRAM NUM NOUN ADV -4.450032920635048
TRIGRAM NUM NOUN AUX -8.257387842692651
TRIGRAM NUM NOUN CCONJ -4.08746284125034
TRIGRAM NUM NOUN DET -2.8650704199138914
TRIGRAM NUM NOUN NOUN -2.797956224055355
TRIGRAM NUM NOUN NUM -6.672425341971495
TRIGRAM NUM NOUN PART -6.672425341971495
TRIGRAM NUM NOUN PRON -5.257387842692652
TRIGRAM NUM NOUN PROPN -7.257387842692652
TRIGRAM NUM NOUN PUNCT -1.6280312226130422
TRIGRAM NUM NOUN SCONJ -6.257387842692651
TRIGRAM NUM NOUN STOP -7.257387842692652
TRIGRAM NUM NOUN VERB -3.350497247084133
TRIGRAM NUM NOUN X -8.257387842692651
TRIGRAM NUM NUM ADJ -2.584962500721156
TRIGRAM NUM NUM DET -2.584962500721156
TRIGRAM NUM NUM NOUN -1.0
TRIGRAM NUM NUM PART -2.584962500721156
TRIGRAM NUM PART VERB 0.0
TRIGRAM NUM PRON AUX -3.0
TRIGRAM NUM PRON NOUN -1.0
TRIGRAM NUM PRON VERB -1.4150374992788437
TRIGRAM NUM PROPN ADP -3.1699250014423126
TRIGRAM NUM PROPN PRON -3.1699250014423126
TRIGRAM NUM PROPN PUNCT -0.5849625007211563
TRIGRAM NUM PROPN VERB -3.1699250014423126
TRIGRAM NUM PUNCT ADP -4.672425341971495
TRIGRAM NUM PUNCT ADV -5.672425341971496
TRIGRAM NUM PUNCT CCONJ -4.672425341971495
TRIGRAM NUM PUNCT DET -3.0874628412503395
TRIGRAM NUM PUNCT NOUN -4.672425341971495
TRIGRAM NUM PUNCT NUM -2.6724253419714956
TRIGRAM NUM PUNCT PART -4.672425341971495
TRIGRAM NUM PUNCT PRON -5.672425341971496
TRIGRAM NUM PUNCT SCONJ -4.08746284125034
TRIGRAM NUM PUNCT STOP -1.2129937233341983
TRIGRAM NUM PUNCT VERB -4.672425341971495
TRIGRAM NUM STOP STOP 0.0
TRIGRAM NUM VERB ADJ -4.169925001442313
TRIGRAM NUM VERB ADP -3.1699250014423126
TRIGRAM NUM VERB ADV -3.1699250014423126
TRIGRAM NUM VERB DET -1.3625700793847084
TRIGRAM NUM VERB NOUN -4.169925001442313
TRIGRAM NUM VERB PART -3.1699250014423126
TRIGRAM NUM VERB PUNCT -3.1699250014423126
TRIGRAM NUM VERB VERB -4.169925001442313
TRIGRAM NUM X ADP -2.0
TRIGRAM NUM X DET -2.0
TRIGRAM NUM X PUNCT -2.0
TRIGRAM NUM X X -2.0
TRIGRAM PART ADJ NOUN 0.0
TRIGRAM PART ADP DET -0.5849625007211563
TRIGRAM PART ADP PRON -1.5849625007211563
TRIGRAM PART ADV ADJ -2.1699250014423126
TRIGRAM PART ADV ADP -1.1699250014423124
TRIGRAM PART ADV PART -1.5849625007211563
TRIGRAM PART AUX ADJ -1.2969817377571315
TRIGRAM PART AUX ADP -4.841302253980942
TRIGRAM PART AUX ADV -2.0339473319233377
TRIGRAM PART AUX CCONJ -5.426264754702098
TRIGRAM PART AUX DET -2.426264754702098
TRIGRAM PART AUX NOUN -5.426264754702098
TRIGRAM PART AUX PART -4.841302253980942
TRIGRAM PART AUX PUNCT -6.426264754702098
TRIGRAM PART AUX VERB -4.841302253980942
TRIGRAM PART CCONJ ADP -1.0
TRIGRAM PART CCONJ NUM -1.0
TRIGRAM PART DET NOUN 0.0
TRIGRAM PART NOUN ADP -2.0
TRIGRAM PART NOUN ADV -2.0
TRIGRAM PART NOUN DET -2.0
TRIGRAM PART NOUN PRON -2.0
TRIGRAM PART NUM NOUN 0.0
TRIGRAM PART PART AUX -3.137503523749935
TRIGRAM PART PART VERB -0.17402939977504894
TRIGRAM PART PRON DET -6.409390936137703
TRIGRAM PART PRON VERB -0.017073513358941406
TRIGRAM PART PUNCT STOP 0.0
TRIGRAM PART STOP STOP 0.0
TRIGRAM PART VERB ADJ -3.6974904257186245
TRIGRAM PART VERB ADP -2.5810314491312414
TRIGRAM PART VERB ADV -2.9252123508657313
TRIGRAM PART VERB AUX -10.517669388133813
TRIGRAM PART VERB CCONJ -4.81722966999272
TRIGRAM PART VERB DET -2.0019695498497696
TRIGRAM PART VERB NOUN -3.8594579053820173
TRIGRAM PART VERB NUM -7.195741293246449
TRIGRAM PART VERB PART -3.025816291804137
TRIGRAM PART VERB PRON -4.932706887412656
TRIGRAM PART VERB PROPN -10.517669388133813
TRIGRAM PART VERB PUNCT -4.4732752687753585
TRIGRAM PART VERB SCONJ -4.610778792525293
TRIGRAM PART VERB VERB -5.659688393006239
TRIGRAM PART VERB X -10.517669388133813
TRIGRAM PRON ADJ ADJ -3.502500340529183
TRIGRAM PRON ADJ ADP -3.502500340529183
TRIGRAM PRON ADJ NOUN -0.5025003405291831
TRIGRAM PRON ADJ PRON -4.08746284125034
TRIGRAM PRON ADJ PROPN -5.08746284125034
TRIGRAM PRON ADJ PUNCT -5.08746284125034
TRIGRAM PRON ADP ADJ -5.129283016944966
TRIGRAM PRON ADP ADP -6.129283016944967
TRIGRAM PRON ADP ADV -5.129283016944966
TRIGRAM PRON ADP DET -0.442782489761748
TRIGRAM PRON ADP NOUN -4.129283016944967
TRIGRAM PRON ADP NUM -5.129283016944966
TRIGRAM PRON ADP PART -5.129283016944966
TRIGRAM PRON ADP PRON -3.669851398307669
TRIGRAM PRON ADV ADJ -3.678071905112638
TRIGRAM PRON ADV ADP -2.1926450779423963
TRIGRAM PRON ADV ADV -4.415037499278844
TRIGRAM PRON ADV CCONJ -4.0
TRIGRAM PRON ADV DET -4.415037499278844
TRIGRAM PRON ADV NOUN -3.192645077942396
TRIGRAM PRON ADV NUM -6.0
TRIGRAM PRON ADV PART -3.415037499278844
TRIGRAM PRON ADV PUNCT -4.0
TRIGRAM PRON ADV SCONJ -6.0
TRIGRAM PRON ADV VERB -2.0
TRIGRAM PRON AUX ADJ -1.690315500867385
TRIGRAM PRON AUX ADP -5.149747119504682
TRIGRAM PRON AUX ADV -2.44930740136359
TRIGRAM PRON AUX CCONJ -6.149747119504682
TRIGRAM PRON AUX DET -1.690315500867385
TRIGRAM PRON AUX NOUN -3.8278190246173196
TRIGRAM PRON AUX NUM -4.564784618783526
TRIGRAM PRON AUX PART -6.149747119504682
TRIGRAM PRON AUX PRON -5.149747119504682
TRIGRAM PRON CCONJ ADJ -4.672425341971495
TRIGRAM PRON CCONJ ADP -2.8650704199138914
TRIGRAM PRON CCONJ ADV -5.672425341971496
TRIGRAM PRON CCONJ DET -3.0874628412503395
TRIGRAM PRON CCONJ PART -2.2129937233341983
TRIGRAM PRON CCONJ PRON -2.6724253419714956
TRIGRAM PRON CCONJ PUNCT -5.672425341971496
TRIGRAM PRON CCONJ SCONJ -4.672425341971495
TRIGRAM PRON CCONJ VERB -1.9719856238304037
TRIGRAM PRON DET ADJ -2.9924663273145926
TRIGRAM PRON DET NOUN -0.3106422873408474
TRIGRAM PRON DET NUM -5.255500733148386
TRIGRAM PRON DET PRON -6.577428828035749
TRIGRAM PRON DET PROPN -5.577428828035749
TRIGRAM PRON DET X -6.577428828035749
TRIGRAM PRON NOUN ADJ -6.562242424221073
TRIGRAM PRON NOUN ADP -2.7548875021634687
TRIGRAM PRON NOUN ADV -4.754887502163469
TRIGRAM PRON NOUN AUX -5.562242424221073
TRIGRAM PRON NOUN CCONJ -3.861802706079981
TRIGRAM PRON NOUN DET -3.5622424242210724
TRIGRAM PRON NOUN NOUN -3.9772799234999168
TRIGRAM PRON NOUN PART -3.9772799234999168
TRIGRAM PRON NOUN PRON -5.24031432933371
TRIGRAM PRON NOUN PUNCT -1.5398746111926183
TRIGRAM PRON NOUN SCONJ -5.562242424221073
TRIGRAM PRON NOUN STOP -5.977279923499917
TRIGRAM PRON NOUN VERB -3.5622424242210724
TRIGRAM PRON NOUN X -6.562242424221073
TRIGRAM PRON NUM ADJ -3.0
TRIGRAM PRON NUM ADP -3.0
TRIGRAM PRON NUM CCONJ -3.0
TRIGRAM PRON NUM NOUN -2.0
TRIGRAM PRON NUM NUM -3.0
TRIGRAM PRON NUM PART -3.0
TRIGRAM PRON NUM VERB -3.0
TRIGRAM PRON PART ADV -7.169925001442313
TRIGRAM PRON PART AUX -3.7104933828050153
TRIGRAM PRON PART PART -4.362570079384708
TRIGRAM PRON PART PRON -5.169925001442312
TRIGRAM PRON PART PUNCT -7.169925001442313
TRIGRAM PRON PART VERB -0.2630344058337938
TRIGRAM PRON PRON ADJ -6.149747119504682
TRIGRAM PRON PRON ADP -6.149747119504682
TRIGRAM PRON PRON AUX -6.149747119504682
TRIGRAM PRON PRON DET -4.564784618783526
TRIGRAM PRON PRON NOUN -4.564784618783526
TRIGRAM PRON PRON PART -3.8278190246173196
TRIGRAM PRON PRON PRON -4.149747119504682
TRIGRAM PRON PRON PUNCT -4.149747119504682
TRIGRAM PRON PRON STOP -5.149747119504682
TRIGRAM PRON PRON VERB -0.5951582678270446
TRIGRAM PRON PROPN PUNCT 0.0
TRIGRAM PRON PUNCT ADJ -6.906890595608519
TRIGRAM PRON PUNCT ADP -4.206450877467426
TRIGRAM PRON PUNCT ADV -4.099535673550915
TRIGRAM PRON PUNCT AUX -7.906890595608519
TRIGRAM PRON PUNCT CCONJ -4.321928094887363
TRIGRAM PRON PUNCT DET -3.0995356735509145
TRIGRAM PRON PUNCT NOUN -4.099535673550915
TRIGRAM PRON PUNCT PART -4.906890595608519
TRIGRAM PRON PUNCT PRON -4.906890595608519
TRIGRAM PRON PUNCT PROPN -7.906890595608519
TRIGRAM PRON PUNCT SCONJ -4.584962500721157
TRIGRAM PRON PUNCT STOP -1.3069777534213909
TRIGRAM PRON PUNCT VERB -3.0489096004809464
TRIGRAM PRON PUNCT X -6.321928094887362
TRIGRAM PRON SCONJ CCONJ -3.9068905956085187
TRIGRAM PRON SCONJ DET -1.0995356735509143
TRIGRAM PRON SCONJ PART -1.9068905956085187
TRIGRAM PRON SCONJ VERB -2.321928094887362
TRIGRAM PRON STOP STOP 0.0
TRIGRAM PRON VERB ADJ -4.5254614889724945
TRIGRAM PRON VERB ADP -2.09412217736455
TRIGRAM PRON VERB ADV -2.762500686273344
TRIGRAM PRON VERB CCONJ -5.247927513443585
TRIGRAM PRON VERB DET -2.321928094887362
TRIGRAM PRON VERB NOUN -4.762500686273344
TRIGRAM PRON VERB NUM -6.984893107609792
TRIGRAM PRON VERB PART -3.440572591385982
TRIGRAM PRON VERB PRON -5.247927513443585
TRIGRAM PRON VERB PROPN -9.569855608330949
TRIGRAM PRON VERB PUNCT -3.5925756848310315
TRIGRAM PRON VERB SCONJ -4.569855608330949
TRIGRAM PRON VERB VERB -4.078002512001273
TRIGRAM PROPN ADJ ADP -2.0
TRIGRAM PROPN ADJ DET -2.0
TRIGRAM PROPN ADJ NOUN -1.0
TRIGRAM PROPN ADP ADJ -4.841302253980942
TRIGRAM PROPN ADP CCONJ -6.426264754702098
TRIGRAM PROPN ADP DET -0.38187063534364446
TRIGRAM PROPN ADP NOUN -3.2563397532597853
TRIGRAM PROPN ADP NUM -5.426264754702098
TRIGRAM PROPN ADP PART -5.426264754702098
TRIGRAM PROPN ADP PRON -6.426264754702098
TRIGRAM PROPN ADP X -5.426264754702098
TRIGRAM PROPN ADV ADP -2.584962500721156
TRIGRAM PROPN ADV CCONJ -3.1699250014423126
TRIGRAM PROPN ADV DET -2.584962500721156
TRIGRAM PROPN ADV NOUN -2.1699250014423126
TRIGRAM PROPN ADV NUM -4.169925001442313
TRIGRAM PROPN ADV PUNCT -3.1699250014423126
TRIGRAM PROPN ADV VERB -2.584962500721156
TRIGRAM PROPN AUX ADJ -1.8073549220576042
TRIGRAM PROPN AUX ADV -4.392317422778761
TRIGRAM PROPN AUX CCONJ -3.3923174227787602
TRIGRAM PROPN AUX DET -1.222392421336448
TRIGRAM PROPN AUX NOUN -3.3923174227787602
TRIGRAM PROPN AUX NUM -4.392317422778761
TRIGRAM PROPN CCONJ ADJ -6.672425341971495
TRIGRAM PROPN CCONJ ADP -3.672425341971496
TRIGRAM PROPN CCONJ ADV -5.08746284125034
TRIGRAM PROPN CCONJ DET -1.314873337353412
TRIGRAM PROPN CCONJ NOUN -4.08746284125034
TRIGRAM PROPN CCONJ PART -5.08746284125034
TRIGRAM PROPN CCONJ PRON -5.672425341971496
TRIGRAM PROPN CCONJ PROPN -2.5025003405291835
TRIGRAM PROPN CCONJ PUNCT -6.672425341971495
TRIGRAM PROPN CCONJ SCONJ -5.672425341971496
TRIGRAM PROPN CCONJ VERB -2.6724253419714956
TRIGRAM PROPN CCONJ X -6.672425341971495
TRIGRAM PROPN DET ADJ -2.8365012677171206
TRIGRAM PROPN DET NOUN -0.8889686876112561
TRIGRAM PROPN DET NUM -4.058893689053568
TRIGRAM PROPN DET PRON -4.643856189774724
TRIGRAM PROPN DET PROPN -2.473931188332412
TRIGRAM PROPN DET PUNCT -5.643856189774724
TRIGRAM PROPN DET X -5.643856189774724
TRIGRAM PROPN NOUN ADJ -5.285402218862249
TRIGRAM PROPN NOUN ADP -3.700439718141092
TRIGRAM PROPN NOUN CCONJ -4.285402218862249
TRIGRAM PROPN NOUN DET -3.2854022188622487
TRIGRAM PROPN NOUN NOUN -4.285402218862249
TRIGRAM PROPN NOUN PART -3.700439718141092
TRIGRAM PROPN NOUN PRON -4.285402218862249
TRIGRAM PROPN NOUN PROPN -4.285402218862249
TRIGRAM PROPN NOUN PUNCT -1.5849625007211563
TRIGRAM PROPN NOUN SCONJ -5.285402218862249
TRIGRAM PROPN NOUN VERB -2.700439718141092
TRIGRAM PROPN NUM ADP 0.0
TRIGRAM PROPN PART AUX -5.0
TRIGRAM PROPN PART VERB -0.04580368961312479
TRIGRAM PROPN PRON ADV -3.8073549220576046
TRIGRAM PROPN PRON PRON -2.8073549220576046
TRIGRAM PROPN PRON VERB -0.3479233034203069
TRIGRAM PROPN PROPN ADP -4.339850002884625
TRIGRAM PROPN PROPN AUX -6.339850002884625
TRIGRAM PROPN PROPN CCONJ -3.7548875021634687
TRIGRAM PROPN PROPN DET -5.339850002884625
TRIGRAM PROPN PROPN NOUN -6.339850002884625
TRIGRAM PROPN PROPN PROPN -4.339850002884625
TRIGRAM PROPN PROPN PUNCT -0.8804183842473275
TRIGRAM PROPN PROPN SCONJ -5.339850002884625
TRIGRAM PROPN PROPN VERB -2.2523871616342857
TRIGRAM PROPN PUNCT ADJ -5.653442238603923
TRIGRAM PROPN PUNCT ADP -3.9164766444377164
TRIGRAM PROPN PUNCT ADV -4.6534422386039225
TRIGRAM PROPN PUNCT AUX -6.501439145158873
TRIGRAM PROPN PUNCT CCONJ -5.363935621408938
TRIGRAM PROPN PUNCT DET -2.594548549550354
TRIGRAM PROPN PUNCT NOUN -6.016012317988632
TRIGRAM PROPN PUNCT NUM -6.2384047393250786
TRIGRAM PROPN PUNCT PART -6.501439145158873
TRIGRAM PROPN PUNCT PRON -5.2384047393250786
TRIGRAM PROPN PUNCT PROPN -3.823367240046235
TRIGRAM PROPN PUNCT PUNCT -8.823367240046236
TRIGRAM PROPN PUNCT SCONJ -4.575439726602649
TRIGRAM PROPN PUNCT STOP -1.363935621408938
TRIGRAM PROPN PUNCT VERB -3.4310498172674753
TRIGRAM PROPN PUNCT X -6.501439145158873
TRIGRAM PROPN SCONJ ADP -2.584962500721156
TRIGRAM PROPN SCONJ ADV -3.5849625007211565
TRIGRAM PROPN SCONJ DET -2.0
TRIGRAM PROPN SCONJ PART -2.0
TRIGRAM PROPN SCONJ VERB -2.0
TRIGRAM PROPN STOP STOP 0.0
TRIGRAM PROPN VERB ADJ -4.0
TRIGRAM PROPN VERB ADP -2.125530882083859
TRIGRAM PROPN VERB ADV -3.415037499278844
TRIGRAM PROPN VERB CCONJ -5.584962500721157
TRIGRAM PROPN VERB DET -2.299560281858908
TRIGRAM PROPN VERB NOUN -3.415037499278844
TRIGRAM PROPN VERB NUM -5.584962500721157
TRIGRAM PROPN VERB PART -3.884522782580064
TRIGRAM PROPN VERB PRON -7.584962500721156
TRIGRAM PROPN VERB SCONJ -2.8845227825800643
TRIGRAM PROPN VERB VERB -3.884522782580064
TRIGRAM PROPN X DET -3.5849625007211565
TRIGRAM PROPN X PROPN -0.4150374992788438
TRIGRAM PROPN X PUNCT -2.584962500721156
TRIGRAM PUNCT ADJ ADJ -3.0
TRIGRAM PUNCT ADJ ADP -2.678071905112638
TRIGRAM PUNCT ADJ ADV -5.0
TRIGRAM PUNCT ADJ CCONJ -3.192645077942396
TRIGRAM PUNCT ADJ DET -4.415037499278844
TRIGRAM PUNCT ADJ NOUN -1.2995602818589078
TRIGRAM PUNCT ADJ PRON -5.0
TRIGRAM PUNCT ADJ PROPN -4.415037499278844
TRIGRAM PUNCT ADJ PUNCT -5.0
TRIGRAM PUNCT ADJ X -6.0
TRIGRAM PUNCT ADP ADJ -4.0813883268406554
TRIGRAM PUNCT ADP ADP -5.888743248898259
TRIGRAM PUNCT ADP ADV -5.566815154010897
TRIGRAM PUNCT ADP DET -0.6989186900182418
TRIGRAM PUNCT ADP NOUN -2.759460231953293
TRIGRAM PUNCT ADP NUM -7.88874324889826
TRIGRAM PUNCT ADP PART -4.0813883268406554
TRIGRAM PUNCT ADP PRON -4.303780748177103
TRIGRAM PUNCT ADP PROPN -7.88874324889826
TRIGRAM PUNCT ADP STOP -5.566815154010897
TRIGRAM PUNCT ADV ADJ -5.754887502163469
TRIGRAM PUNCT ADV ADP -2.218834601923259
TRIGRAM PUNCT ADV ADV -3.7548875021634687
TRIGRAM PUNCT ADV CCONJ -2.791413378188583
TRIGRAM PUNCT ADV DET -2.9893527558004918
TRIGRAM PUNCT ADV NOUN -4.6173839784135335
TRIGRAM PUNCT ADV NUM -6.076815597050831
TRIGRAM PUNCT ADV PART -5.269460674993227
TRIGRAM PUNCT ADV PRON -5.076815597050831
TRIGRAM PUNCT ADV PROPN -8.076815597050832
TRIGRAM PUNCT ADV PUNCT -3.491853096329675
TRIGRAM PUNCT ADV SCONJ -4.6173839784135335
TRIGRAM PUNCT ADV VERB -2.4918530963296748
TRIGRAM PUNCT AUX ADJ -0.6166713604484944
TRIGRAM PUNCT AUX ADP -4.523561956057013
TRIGRAM PUNCT AUX ADV -4.523561956057013
TRIGRAM PUNCT AUX CCONJ -4.523561956057013
TRIGRAM PUNCT AUX DET -2.938599455335857
TRIGRAM PUNCT AUX VERB -3.523561956057013
TRIGRAM PUNCT CCONJ ADJ -4.230954434839872
TRIGRAM PUNCT CCONJ ADP -3.078951341394822
TRIGRAM PUNCT CCONJ ADV -2.815916935561028
TRIGRAM PUNCT CCONJ AUX -5.815916935561028
TRIGRAM PUNCT CCONJ CCONJ -3.941447817644887
TRIGRAM PUNCT CCONJ DET -2.941447817644887
TRIGRAM PUNCT CCONJ NOUN -5.400879436282184
TRIGRAM PUNCT CCONJ PART -3.313416595031845
TRIGRAM PUNCT CCONJ PRON -4.230954434839872
TRIGRAM PUNCT CCONJ PUNCT -4.815916935561028
TRIGRAM PUNCT CCONJ SCONJ -5.815916935561028
TRIGRAM PUNCT CCONJ VERB -2.043327431664101
TRIGRAM PUNCT DET ADJ -2.5962336130561763
TRIGRAM PUNCT DET ADP -8.005624549193879
TRIGRAM PUNCT DET ADV -6.683696454306516
TRIGRAM PUNCT DET DET -7.420662048472722
TRIGRAM PUNCT DET NOUN -1.264157562792731
TRIGRAM PUNCT DET NUM -6.005624549193879
TRIGRAM PUNCT DET PART -9.005624549193879
TRIGRAM PUNCT DET PRON -2.2374402244169516
TRIGRAM PUNCT DET PROPN -3.3617683594191536
TRIGRAM PUNCT DET VERB -8.005624549193879
TRIGRAM PUNCT DET X -3.876341532248912
TRIGRAM PUNCT NOUN ADJ -4.066089190457772
TRIGRAM PUNCT NOUN ADP -4.066089190457772
TRIGRAM PUNCT NOUN ADV -6.066089190457772
TRIGRAM PUNCT NOUN CCONJ -2.4222330006830477
TRIGRAM PUNCT NOUN DET -3.2587342684001683
TRIGRAM PUNCT NOUN NOUN -2.2587342684001683
TRIGRAM PUNCT NOUN PRON -3.3656494723166808
TRIGRAM PUNCT NOUN PROPN -7.066089190457772
TRIGRAM PUNCT NOUN PUNCT -2.311201688294304
TRIGRAM PUNCT NOUN STOP -6.066089190457772
TRIGRAM PUNCT NOUN VERB -7.066089190457772
TRIGRAM PUNCT NOUN X -4.74416109557041
TRIGRAM PUNCT NUM ADJ -3.9068905956085187
TRIGRAM PUNCT NUM ADP -2.0995356735509145
TRIGRAM PUNCT NUM AUX -4.906890595608519
TRIGRAM PUNCT NUM DET -4.906890595608519
TRIGRAM PUNCT NUM NOUN -1.4474589769712212
TRIGRAM PUNCT NUM PUNCT -2.321928094887362
TRIGRAM PUNCT NUM VERB -3.9068905956085187
TRIGRAM PUNCT PART ADV -5.700439718141092
TRIGRAM PUNCT PART AUX -5.115477217419936
TRIGRAM PUNCT PART CCONJ -5.700439718141092
TRIGRAM PUNCT PART DET -6.700439718141092
TRIGRAM PUNCT PART PART -4.700439718141093
TRIGRAM PUNCT PART PRON -3.8930847960834885
TRIGRAM PUNCT PART STOP -6.700439718141092
TRIGRAM PUNCT PART VERB -0.3081222953623319
TRIGRAM PUNCT PRON ADP -5.20945336562895
TRIGRAM PUNCT PRON ADV -5.20945336562895
TRIGRAM PUNCT PRON AUX -3.4020984435713455
TRIGRAM PUNCT PRON CCONJ -4.209453365628949
TRIGRAM PUNCT PRON DET -5.20945336562895
TRIGRAM PUNCT PRON NOUN -3.6244908649077936
TRIGRAM PUNCT PRON NUM -6.209453365628949
TRIGRAM PUNCT PRON PART -3.4020984435713455
TRIGRAM PUNCT PRON PRON -4.624490864907794
TRIGRAM PUNCT PRON PUNCT -6.209453365628949
TRIGRAM PUNCT PRON SCONJ -6.209453365628949
TRIGRAM PUNCT PRON VERB -0.9615258521853645
TRIGRAM PUNCT PROPN CCONJ -3.700439718141092
TRIGRAM PUNCT PROPN NOUN -4.700439718141093
TRIGRAM PUNCT PROPN PROPN -1.1768777620840793
TRIGRAM PUNCT PROPN PUNCT -1.452512204697507
TRIGRAM PUNCT PROPN X -3.700439718141092
TRIGRAM PUNCT PUNCT ADJ -1.5849625007211563
TRIGRAM PUNCT PUNCT DET -1.5849625007211563
TRIGRAM PUNCT PUNCT PART -1.5849625007211563
TRIGRAM PUNCT SCONJ ADJ -4.990954860396993
TRIGRAM PUNCT SCONJ ADP -3.9909548603969927
TRIGRAM PUNCT SCONJ ADV -3.3128829552843557
TRIGRAM PUNCT SCONJ AUX -5.312882955284356
TRIGRAM PUNCT SCONJ CCONJ -4.142957953842043
TRIGRAM PUNCT SCONJ DET -1.990954860396993
TRIGRAM PUNCT SCONJ NOUN -6.312882955284356
TRIGRAM PUNCT SCONJ NUM -6.312882955284356
TRIGRAM PUNCT SCONJ PART -2.727920454563199
TRIGRAM PUNCT SCONJ PRON -3.9909548603969927
TRIGRAM PUNCT SCONJ PUNCT -7.312882955284356
TRIGRAM PUNCT SCONJ VERB -2.142957953842043
TRIGRAM PUNCT STOP STOP 0.0
TRIGRAM PUNCT VERB ADJ -3.608809242675524
TRIGRAM PUNCT VERB ADP -3.004737919006663
TRIGRAM PUNCT VERB ADV -2.895113427832165
TRIGRAM PUNCT VERB CCONJ -4.004737919006663
TRIGRAM PUNCT VERB DET -2.0628408735702313
TRIGRAM PUNCT VERB NOUN -4.445310510392645
TRIGRAM PUNCT VERB NUM -5.930737337562887
TRIGRAM PUNCT VERB PART -2.967263213588
TRIGRAM PUNCT VERB PRON -5.445310510392645
TRIGRAM PUNCT VERB PUNCT -6.252665432450249
TRIGRAM PUNCT VERB SCONJ -3.394684437322677
TRIGRAM PUNCT VERB VERB -4.793233813812952
TRIGRAM PUNCT X ADJ -5.08746284125034
TRIGRAM PUNCT X ADV -5.08746284125034
TRIGRAM PUNCT X CCONJ -4.08746284125034
TRIGRAM PUNCT X DET -5.08746284125034
TRIGRAM PUNCT X PROPN -4.08746284125034
TRIGRAM PUNCT X PUNCT -1.9175378398080272
TRIGRAM PUNCT X STOP -5.08746284125034
TRIGRAM PUNCT X X -1.0
TRIGRAM SCONJ ADJ ADJ -4.459431618637297
TRIGRAM SCONJ ADJ ADP -4.459431618637297
TRIGRAM SCONJ ADJ ADV -4.459431618637297
TRIGRAM SCONJ ADJ AUX -4.459431618637297
TRIGRAM SCONJ ADJ DET -1.4594316186372973
TRIGRAM SCONJ ADJ NOUN -1.6520766965796934
TRIGRAM SCONJ ADJ PART -4.459431618637297
TRIGRAM SCONJ ADJ PRON -3.4594316186372978
TRIGRAM SCONJ ADP ADJ -4.169925001442313
TRIGRAM SCONJ ADP DET -0.4150374992788438
TRIGRAM SCONJ ADP NUM -4.169925001442313
TRIGRAM SCONJ ADP PART -4.169925001442313
TRIGRAM SCONJ ADP PRON -3.5849625007211565
TRIGRAM SCONJ ADV ADP -2.2895066171949847
TRIGRAM SCONJ ADV ADV -4.459431618637297
TRIGRAM SCONJ ADV AUX -5.459431618637297
TRIGRAM SCONJ ADV CCONJ -5.459431618637297
TRIGRAM SCONJ ADV DET -3.4594316186372978
TRIGRAM SCONJ ADV PART -2.652076696579693
TRIGRAM SCONJ ADV PRON -3.8744691179161412
TRIGRAM SCONJ ADV PUNCT -5.459431618637297
TRIGRAM SCONJ ADV VERB -1.4594316186372973
TRIGRAM SCONJ AUX ADJ -1.0
TRIGRAM SCONJ AUX ADV -2.1699250014423126
TRIGRAM SCONJ AUX NOUN -3.1699250014423126
TRIGRAM SCONJ AUX NUM -4.169925001442313
TRIGRAM SCONJ AUX PUNCT -4.169925001442313
TRIGRAM SCONJ AUX VERB -4.169925001442313
TRIGRAM SCONJ CCONJ ADP -3.0874628412503395
TRIGRAM SCONJ CCONJ DET -1.0874628412503395
TRIGRAM SCONJ CCONJ NOUN -4.08746284125034
TRIGRAM SCONJ CCONJ PART -3.0874628412503395
TRIGRAM SCONJ CCONJ PRON -4.08746284125034
TRIGRAM SCONJ CCONJ VERB -2.5025003405291835
TRIGRAM SCONJ DET ADJ -2.017629894021791
TRIGRAM SCONJ DET ADV -7.948367231584678
TRIGRAM SCONJ DET DET -6.948367231584678
TRIGRAM SCONJ DET NOUN -0.7986201120799956
TRIGRAM SCONJ DET NUM -5.141012309527074
TRIGRAM SCONJ DET PART -7.948367231584678
TRIGRAM SCONJ DET PRON -7.948367231584678
TRIGRAM SCONJ DET PROPN -3.700439718141092
TRIGRAM SCONJ DET VERB -6.948367231584678
TRIGRAM SCONJ DET X -4.4889356129473805
TRIGRAM SCONJ NOUN ADP -2.0
TRIGRAM SCONJ NOUN NOUN -2.0
TRIGRAM SCONJ NOUN PRON -2.0
TRIGRAM SCONJ NOUN VERB -2.0
TRIGRAM SCONJ NUM ADJ -2.0
TRIGRAM SCONJ NUM ADV -2.0
TRIGRAM SCONJ NUM NOUN -2.0
TRIGRAM SCONJ NUM PRON -2.0
TRIGRAM SCONJ PART AUX -3.423211430724544
TRIGRAM SCONJ PART PART -4.075288127304238
TRIGRAM SCONJ PART PRON -4.560714954474479
TRIGRAM SCONJ PART VERB -0.3127874410308935
TRIGRAM SCONJ PRON ADJ -5.321928094887363
TRIGRAM SCONJ PRON AUX -2.5145731728297585
TRIGRAM SCONJ PRON DET -2.736965594166206
TRIGRAM SCONJ PRON NUM -5.321928094887363
TRIGRAM SCONJ PRON PART -2.736965594166206
TRIGRAM SCONJ PRON PRON -3.321928094887362
TRIGRAM SCONJ PRON VERB -1.4150374992788437
TRIGRAM SCONJ PUNCT ADP -1.5849625007211563
TRIGRAM SCONJ PUNCT ADV -1.5849625007211563
TRIGRAM SCONJ PUNCT CCONJ -3.9068905956085187
TRIGRAM SCONJ PUNCT NOUN -3.9068905956085187
TRIGRAM SCONJ PUNCT SCONJ -2.321928094887362
TRIGRAM SCONJ SCONJ DET -1.0
TRIGRAM SCONJ SCONJ PART -2.0
TRIGRAM SCONJ SCONJ VERB -2.0
TRIGRAM SCONJ VERB ADJ -4.104336659814735
TRIGRAM SCONJ VERB ADP -2.5193741590935796
TRIGRAM SCONJ VERB ADV -3.5193741590935796
TRIGRAM SCONJ VERB DET -2.618909832644494
TRIGRAM SCONJ VERB NOUN -3.725825036561006
TRIGRAM SCONJ VERB NUM -5.426264754702098
TRIGRAM SCONJ VERB PART -2.0339473319233377
TRIGRAM SCONJ VERB PRON -4.426264754702098
TRIGRAM SCONJ VERB PUNCT -6.426264754702098
TRIGRAM SCONJ VERB SCONJ -4.256339753259786
TRIGRAM SCONJ VERB VERB -3.966833136064801
TRIGRAM VERB ADJ ADJ -4.292781749227846
TRIGRAM VERB ADJ ADP -3.740240726199067
TRIGRAM VERB ADJ ADV -5.029747343394052
TRIGRAM VERB ADJ CCONJ -4.877744249949003
TRIGRAM VERB ADJ DET -3.029747343394052
TRIGRAM VERB ADJ NOUN -0.8509441906052869
TRIGRAM VERB ADJ NUM -8.199672344836364
TRIGRAM VERB ADJ PART -5.614709844115209
TRIGRAM VERB ADJ PRON -5.199672344836364
TRIGRAM VERB ADJ PUNCT -4.112209503586025
TRIGRAM VERB ADJ SCONJ -5.614709844115209
TRIGRAM VERB ADJ X -8.199672344836364
TRIGRAM VERB ADP ADJ -3.358453970912476
TRIGRAM VERB ADP ADP -8.05889368905357
TRIGRAM VERB ADP ADV -5.9434164716336335
TRIGRAM VERB ADP CCONJ -9.643856189774725
TRIGRAM VERB ADP DET -0.5804611084862156
TRIGRAM VERB ADP NOUN -2.8756718649977984
TRIGRAM VERB ADP NUM -5.321928094887363
TRIGRAM VERB ADP PART -7.058893689053569
TRIGRAM VERB ADP PRON -4.599462070416271
TRIGRAM VERB ADP PUNCT -9.643856189774725
TRIGRAM VERB ADP X -9.643856189774725
TRIGRAM VERB ADV ADJ -3.4747795829707333
TRIGRAM VERB ADV ADP -2.070389327891398
TRIGRAM VERB ADV ADV -3.720940170240131
TRIGRAM VERB ADV AUX -8.14720492494223
TRIGRAM VERB ADV CCONJ -4.623642968885216
TRIGRAM VERB ADV DET -2.3398500028846247
TRIGRAM VERB ADV NOUN -3.532495080827021
TRIGRAM VERB ADV NUM -6.14720492494223
TRIGRAM VERB ADV PART -3.789652920324145
TRIGRAM VERB ADV PRON -5.24031432933371
TRIGRAM VERB ADV PUNCT -3.623642968885216
TRIGRAM VERB ADV SCONJ -4.503348735167505
TRIGRAM VERB ADV STOP -9.147204924942228
TRIGRAM VERB ADV VERB -5.147204924942229
TRIGRAM VERB AUX DET -1.0
TRIGRAM VERB AUX VERB -1.0
TRIGRAM VERB CCONJ ADJ -4.321928094887363
TRIGRAM VERB CCONJ ADP -3.8073549220576046
TRIGRAM VERB CCONJ ADV -3.321928094887362
TRIGRAM VERB CCONJ CCONJ -7.129283016944967
TRIGRAM VERB CCONJ DET -1.843880798082718
TRIGRAM VERB CCONJ NOUN -5.129283016944966
TRIGRAM VERB CCONJ NUM -6.129283016944967
TRIGRAM VERB CCONJ PART -2.6057210608879537
TRIGRAM VERB CCONJ PRON -3.4288432988038746
TRIGRAM VERB CCONJ PUNCT -6.129283016944967
TRIGRAM VERB CCONJ SCONJ -4.807354922057604
TRIGRAM VERB CCONJ STOP -7.129283016944967
TRIGRAM VERB CCONJ VERB -2.881355503501381
TRIGRAM VERB DET ADJ -2.023748602772609
TRIGRAM VERB DET ADP -8.351675438281415
TRIGRAM VERB DET ADV -6.936637939002571
TRIGRAM VERB DET DET -8.351675438281415
TRIGRAM VERB DET NOUN -0.6675112598531526
TRIGRAM VERB DET NUM -5.181750436839103
TRIGRAM VERB DET PRON -7.93663793900257
TRIGRAM VERB DET PROPN -4.510373184300473
TRIGRAM VERB DET PUNCT -8.936637939002571
TRIGRAM VERB DET VERB -7.351675438281415
TRIGRAM VERB DET X -5.236198220861478
TRIGRAM VERB NOUN ADJ -5.199672344836364
TRIGRAM VERB NOUN ADP -1.4183126313117047
TRIGRAM VERB NOUN ADV -4.199672344836364
TRIGRAM VERB NOUN CCONJ -4.199672344836364
TRIGRAM VERB NOUN DET -3.029747343394052
TRIGRAM VERB NOUN NOUN -3.1122095035860253
TRIGRAM VERB NOUN NUM -7.199672344836364
TRIGRAM VERB NOUN PART -5.029747343394052
TRIGRAM VERB NOUN PRON -4.199672344836364
TRIGRAM VERB NOUN PUNCT -2.9902189792074148
TRIGRAM VERB NOUN SCONJ -5.199672344836364
TRIGRAM VERB NOUN VERB -7.199672344836364
TRIGRAM VERB NUM ADJ -4.058893689053568
TRIGRAM VERB NUM ADP -3.0588936890535687
TRIGRAM VERB NUM ADV -4.058893689053568
TRIGRAM VERB NUM CCONJ -4.643856189774724
TRIGRAM VERB NUM NOUN -0.5994620704162712
TRIGRAM VERB NUM PROPN -4.643856189774724
TRIGRAM VERB NUM PUNCT -5.643856189774724
TRIGRAM VERB PART ADV -8.036173612553485
TRIGRAM VERB PART AUX -4.948710771303146
TRIGRAM VERB PART PART -7.45121111183233
TRIGRAM VERB PART PRON -4.081977302166609
TRIGRAM VERB PART VERB -0.15353056319164365
TRIGRAM VERB PRON ADJ -3.9068905956085187
TRIGRAM VERB PRON ADP -4.584962500721157
TRIGRAM VERB PRON ADV -3.9068905956085187
TRIGRAM VERB PRON CCONJ -6.906890595608519
TRIGRAM VERB PRON DET -2.0995356735509145
TRIGRAM VERB PRON NOUN -1.8194277543581794
TRIGRAM VERB PRON NUM -5.906890595608519
TRIGRAM VERB PRON PART -4.099535673550915
TRIGRAM VERB PRON PRON -4.584962500721157
TRIGRAM VERB PRON PUNCT -3.7369655941662066
TRIGRAM VERB PRON SCONJ -5.321928094887363
TRIGRAM VERB PRON VERB -3.5849625007211565
TRIGRAM VERB PROPN ADP -1.0
TRIGRAM VERB PROPN NOUN -2.0
TRIGRAM VERB PROPN PUNCT -2.0
TRIGRAM VERB PUNCT ADJ -6.0370893187352195
TRIGRAM VERB PUNCT ADP -4.452126818014064
TRIGRAM VERB PUNCT ADV -2.6220518194563764
TRIGRAM VERB PUNCT CCONJ -3.7151612238478577
TRIGRAM VERB PUNCT DET -3.814696897398772
TRIGRAM VERB PUNCT NOUN -5.300123724569014
TRIGRAM VERB PUNCT PART -4.300123724569015
TRIGRAM VERB PUNCT PRON -6.0370893187352195
TRIGRAM VERB PUNCT SCONJ -4.814696897398772
TRIGRAM VERB PUNCT STOP -1.2126608833186745
TRIGRAM VERB PUNCT VERB -3.814696897398772
TRIGRAM VERB SCONJ ADJ -4.82781902461732
TRIGRAM VERB SCONJ ADP -4.3423921974470785
TRIGRAM VERB SCONJ ADV -4.242856523896164
TRIGRAM VERB SCONJ AUX -5.82781902461732
TRIGRAM VERB SCONJ DET -1.3553312531545763
TRIGRAM VERB SCONJ NOUN -8.149747119504683
TRIGRAM VERB SCONJ NUM -7.149747119504682
TRIGRAM VERB SCONJ PART -2.9018196060610966
TRIGRAM VERB SCONJ PRON -3.9018196060610966
TRIGRAM VERB SCONJ PUNCT -4.690315500867385
TRIGRAM VERB SCONJ SCONJ -7.149747119504682
TRIGRAM VERB SCONJ VERB -2.342392197447078
TRIGRAM VERB STOP STOP 0.0
TRIGRAM VERB VERB ADJ -3.451211111832329
TRIGRAM VERB VERB ADP -1.8073549220576042
TRIGRAM VERB VERB ADV -3.0588936890535687
TRIGRAM VERB VERB AUX -7.45121111183233
TRIGRAM VERB VERB CCONJ -4.866248611111173
TRIGRAM VERB VERB DET -2.1292830169449664
TRIGRAM VERB VERB NOUN -3.9917794931950312
TRIGRAM VERB VERB NUM -6.45121111183233
TRIGRAM VERB VERB PART -4.643856189774724
TRIGRAM VERB VERB PRON -5.866248611111173
TRIGRAM VERB VERB PUNCT -4.643856189774724
TRIGRAM VERB VERB SCONJ -4.451211111832329
TRIGRAM VERB VERB STOP -7.45121111183233
TRIGRAM VERB VERB VERB -7.45121111183233
TRIGRAM VERB VERB X -7.45121111183233
TRIGRAM VERB X ADP 0.0
TRIGRAM X ADJ DET -2.321928094887362
TRIGRAM X ADJ NOUN -1.3219280948873622
TRIGRAM X ADJ PROPN -1.3219280948873622
TRIGRAM X ADP DET -0.4274212237346762
TRIGRAM X ADP NOUN -3.700439718141092
TRIGRAM X ADP NUM -4.285402218862249
TRIGRAM X ADP PART -5.285402218862249
TRIGRAM X ADP PRON -5.285402218862249
TRIGRAM X ADP X -3.700439718141092
TRIGRAM X ADV ADP -1.4150374992788437
TRIGRAM X ADV CCONJ -2.0
TRIGRAM X ADV VERB -1.4150374992788437
TRIGRAM X AUX ADJ -1.0
TRIGRAM X AUX ADV -1.5849625007211563
TRIGRAM X AUX NUM -2.584962500721156
TRIGRAM X CCONJ ADJ -5.0
TRIGRAM X CCONJ ADP -3.0
TRIGRAM X CCONJ ADV -4.0
TRIGRAM X CCONJ DET -1.4150374992788437
TRIGRAM X CCONJ NOUN -5.0
TRIGRAM X CCONJ PRON -4.0
TRIGRAM X CCONJ PROPN -5.0
TRIGRAM X CCONJ PUNCT -5.0
TRIGRAM X CCONJ VERB -3.0
TRIGRAM X CCONJ X -3.0
TRIGRAM X DET ADJ -2.643856189774725
TRIGRAM X DET CCONJ -4.643856189774724
TRIGRAM X DET NOUN -1.1844245711374275
TRIGRAM X DET NUM -4.643856189774724
TRIGRAM X DET PRON -4.643856189774724
TRIGRAM X DET PROPN -1.8365012677171204
TRIGRAM X NOUN CCONJ -2.0
TRIGRAM X NOUN NOUN -1.0
TRIGRAM X NOUN PRON -2.0
TRIGRAM X NUM ADP -3.5849625007211565
TRIGRAM X NUM DET -3.5849625007211565
TRIGRAM X NUM NOUN -2.584962500721156
TRIGRAM X NUM PUNCT -1.5849625007211563
TRIGRAM X NUM STOP -2.584962500721156
TRIGRAM X NUM VERB -3.5849625007211565
TRIGRAM X NUM X -3.5849625007211565
TRIGRAM X PART PART -4.0
TRIGRAM X PART VERB -0.09310940439148148
TRIGRAM X PRON ADV -2.321928094887362
TRIGRAM X PRON VERB -0.3219280948873623
TRIGRAM X PROPN ADP -2.415037499278844
TRIGRAM X PROPN PART -3.0
TRIGRAM X PROPN PUNCT -0.6780719051126377
TRIGRAM X PROPN VERB -4.0
TRIGRAM X PUNCT ADJ -5.439623137557117
TRIGRAM X PUNCT ADP -3.3692338096657193
TRIGRAM X PUNCT ADV -4.954196310386876
TRIGRAM X PUNCT AUX -7.7615512324444795
TRIGRAM X PUNCT CCONJ -4.439623137557117
TRIGRAM X PUNCT DET -2.5520978668155294
TRIGRAM X PUNCT NOUN -5.439623137557117
TRIGRAM X PUNCT NUM -5.439623137557117
TRIGRAM X PUNCT PART -5.7615512324444795
TRIGRAM X PUNCT PRON -6.7615512324444795
TRIGRAM X PUNCT PROPN -6.1765887317233235
TRIGRAM X PUNCT SCONJ -4.7615512324444795
TRIGRAM X PUNCT STOP -1.6530267756663102
TRIGRAM X PUNCT VERB -3.237989276387467
TRIGRAM X PUNCT X -3.67408839119414
TRIGRAM X SCONJ DET -1.0
TRIGRAM X SCONJ PART -2.584962500721156
TRIGRAM X SCONJ PRON -2.584962500721156
TRIGRAM X SCONJ VERB -2.584962500721156
TRIGRAM X STOP STOP 0.0
TRIGRAM X VERB ADJ -4.7900769306257684
TRIGRAM X VERB ADP -2.2875765900965854
TRIGRAM X VERB ADV -3.375039431346925
TRIGRAM X VERB DET -1.6745997132058328
TRIGRAM X VERB NOUN -3.7900769306257684
TRIGRAM X VERB NUM -4.7900769306257684
TRIGRAM X VERB PART -3.5676845092893212
TRIGRAM X VERB PUNCT -6.375039431346925
TRIGRAM X VERB SCONJ -4.375039431346925
TRIGRAM X VERB VERB -3.375039431346925
TRIGRAM X X ADJ -7.584962500721156
TRIGRAM X X ADP -3.678071905112638
TRIGRAM X X ADV -5.584962500721157
TRIGRAM X X AUX -7.584962500721156
TRIGRAM X X CCONJ -4.584962500721157
TRIGRAM X X DET -4.415037499278844
TRIGRAM X X NUM -5.584962500721157
TRIGRAM X X PUNCT -1.3561438102252754
TRIGRAM X X SCONJ -7.584962500721156
TRIGRAM X X STOP -4.777607578663552
TRIGRAM X X VERB -2.125530882083859
TRIGRAM X X X -3.0614005446641435
